xof 0302txt 0064
template Header {
 <3D82AB43-62DA-11cf-AB39-0020AF71E433>
 WORD major;
 WORD minor;
 DWORD flags;
}

template Vector {
 <3D82AB5E-62DA-11cf-AB39-0020AF71E433>
 FLOAT x;
 FLOAT y;
 FLOAT z;
}

template Coords2d {
 <F6F23F44-7686-11cf-8F52-0040333594A3>
 FLOAT u;
 FLOAT v;
}

template Matrix4x4 {
 <F6F23F45-7686-11cf-8F52-0040333594A3>
 array FLOAT matrix[16];
}

template ColorRGBA {
 <35FF44E0-6C7C-11cf-8F52-0040333594A3>
 FLOAT red;
 FLOAT green;
 FLOAT blue;
 FLOAT alpha;
}

template ColorRGB {
 <D3E16E81-7835-11cf-8F52-0040333594A3>
 FLOAT red;
 FLOAT green;
 FLOAT blue;
}

template IndexedColor {
 <1630B820-7842-11cf-8F52-0040333594A3>
 DWORD index;
 ColorRGBA indexColor;
}

template Boolean {
 <4885AE61-78E8-11cf-8F52-0040333594A3>
 WORD truefalse;
}

template Boolean2d {
 <4885AE63-78E8-11cf-8F52-0040333594A3>
 Boolean u;
 Boolean v;
}

template MaterialWrap {
 <4885AE60-78E8-11cf-8F52-0040333594A3>
 Boolean u;
 Boolean v;
}

template TextureFilename {
 <A42790E1-7810-11cf-8F52-0040333594A3>
 STRING filename;
}

template Material {
 <3D82AB4D-62DA-11cf-AB39-0020AF71E433>
 ColorRGBA faceColor;
 FLOAT power;
 ColorRGB specularColor;
 ColorRGB emissiveColor;
 [...]
}

template MeshFace {
 <3D82AB5F-62DA-11cf-AB39-0020AF71E433>
 DWORD nFaceVertexIndices;
 array DWORD faceVertexIndices[nFaceVertexIndices];
}

template MeshFaceWraps {
 <4885AE62-78E8-11cf-8F52-0040333594A3>
 DWORD nFaceWrapValues;
 Boolean2d faceWrapValues;
}

template MeshTextureCoords {
 <F6F23F40-7686-11cf-8F52-0040333594A3>
 DWORD nTextureCoords;
 array Coords2d textureCoords[nTextureCoords];
}

template MeshMaterialList {
 <F6F23F42-7686-11cf-8F52-0040333594A3>
 DWORD nMaterials;
 DWORD nFaceIndexes;
 array DWORD faceIndexes[nFaceIndexes];
 [Material]
}

template MeshNormals {
 <F6F23F43-7686-11cf-8F52-0040333594A3>
 DWORD nNormals;
 array Vector normals[nNormals];
 DWORD nFaceNormals;
 array MeshFace faceNormals[nFaceNormals];
}

template MeshVertexColors {
 <1630B821-7842-11cf-8F52-0040333594A3>
 DWORD nVertexColors;
 array IndexedColor vertexColors[nVertexColors];
}

template Mesh {
 <3D82AB44-62DA-11cf-AB39-0020AF71E433>
 DWORD nVertices;
 array Vector vertices[nVertices];
 DWORD nFaces;
 array MeshFace faces[nFaces];
 [...]
}

Header{
1;
0;
1;
}

Mesh {
 188;
 0.00000;0.31654;4.64483;,
 -0.06388;0.31004;4.64483;,
 -0.06388;0.31004;-4.65232;,
 0.00000;0.31654;-4.65232;,
 -0.12515;0.29082;4.64483;,
 -0.12515;0.29082;-4.65232;,
 -0.18129;0.25965;4.64483;,
 -0.18129;0.25965;-4.65232;,
 -0.23001;0.21783;4.64483;,
 -0.23001;0.21783;-4.65232;,
 -0.26932;0.16705;4.64483;,
 -0.26932;0.16705;-4.65232;,
 -0.29760;0.10940;4.64483;,
 -0.29760;0.10940;-4.65232;,
 -0.31369;0.04724;4.64483;,
 -0.31369;0.04724;-4.65232;,
 -0.31694;-0.01689;4.64483;,
 -0.31694;-0.01689;-4.65232;,
 -0.30722;-0.08036;4.64483;,
 -0.30722;-0.08036;-4.65232;,
 -0.28492;-0.14057;4.64483;,
 -0.28492;-0.14057;-4.65232;,
 -0.25095;-0.19507;4.64483;,
 -0.25095;-0.19507;-4.65232;,
 -0.20671;-0.24161;4.64483;,
 -0.20671;-0.24161;-4.65232;,
 -0.15401;-0.27829;4.64483;,
 -0.15401;-0.27829;-4.65232;,
 -0.09500;-0.30361;4.64483;,
 -0.09500;-0.30361;-4.65232;,
 -0.03211;-0.31654;4.64483;,
 -0.03211;-0.31654;-4.65232;,
 0.03211;-0.31654;4.64483;,
 0.03211;-0.31654;-4.65232;,
 0.09500;-0.30361;4.64483;,
 0.09500;-0.30361;-4.65232;,
 0.15401;-0.27829;4.64483;,
 0.15401;-0.27829;-4.65232;,
 0.20671;-0.24161;4.64483;,
 0.20671;-0.24161;-4.65232;,
 0.25095;-0.19507;4.64483;,
 0.25095;-0.19507;-4.65232;,
 0.28492;-0.14057;4.64483;,
 0.28492;-0.14057;-4.65232;,
 0.30722;-0.08036;4.64483;,
 0.30722;-0.08036;-4.65232;,
 0.31694;-0.01689;4.64483;,
 0.31694;-0.01689;-4.65232;,
 0.31369;0.04724;4.64483;,
 0.31369;0.04724;-4.65232;,
 0.29760;0.10940;4.64483;,
 0.29760;0.10940;-4.65232;,
 0.26932;0.16705;4.64483;,
 0.26932;0.16705;-4.65232;,
 0.23001;0.21783;4.64483;,
 0.23001;0.21783;-4.65232;,
 0.18129;0.25965;4.64483;,
 0.18129;0.25965;-4.65232;,
 0.12515;0.29082;4.64483;,
 0.12515;0.29082;-4.65232;,
 0.06388;0.31004;4.64483;,
 0.06388;0.31004;-4.65232;,
 0.00000;0.31654;4.64483;,
 0.00000;0.31654;-4.65232;,
 -0.00000;-0.00081;4.64483;,
 -0.00000;-0.00081;4.64483;,
 -0.00000;-0.00081;4.64483;,
 -0.00000;-0.00081;4.64483;,
 -0.00000;-0.00081;4.64483;,
 -0.00000;-0.00081;4.64483;,
 -0.00000;-0.00081;4.64483;,
 -0.00000;-0.00081;4.64483;,
 -0.00000;-0.00081;4.64483;,
 -0.00000;-0.00081;4.64483;,
 -0.00000;-0.00081;4.64483;,
 -0.00000;-0.00081;4.64483;,
 -0.00000;-0.00081;4.64483;,
 -0.00000;-0.00081;4.64483;,
 -0.00000;-0.00081;4.64483;,
 -0.00000;-0.00081;4.64483;,
 -0.00000;-0.00081;4.64483;,
 -0.00000;-0.00081;4.64483;,
 -0.00000;-0.00081;4.64483;,
 -0.00000;-0.00081;4.64483;,
 -0.00000;-0.00081;4.64483;,
 -0.00000;-0.00081;4.64483;,
 -0.00000;-0.00081;4.64483;,
 -0.00000;-0.00081;4.64483;,
 -0.00000;-0.00081;4.64483;,
 -0.00000;-0.00081;4.64483;,
 -0.00000;-0.00081;4.64483;,
 -0.00000;-0.00081;4.64483;,
 -0.00000;-0.00081;4.64483;,
 -0.00000;-0.00081;4.64483;,
 -0.00000;-0.00081;4.64483;,
 0.00000;-0.00081;-4.65232;,
 0.00000;-0.00081;-4.65232;,
 0.00000;-0.00081;-4.65232;,
 0.00000;-0.00081;-4.65232;,
 0.00000;-0.00081;-4.65232;,
 0.00000;-0.00081;-4.65232;,
 0.00000;-0.00081;-4.65232;,
 0.00000;-0.00081;-4.65232;,
 0.00000;-0.00081;-4.65232;,
 0.00000;-0.00081;-4.65232;,
 0.00000;-0.00081;-4.65232;,
 0.00000;-0.00081;-4.65232;,
 0.00000;-0.00081;-4.65232;,
 0.00000;-0.00081;-4.65232;,
 0.00000;-0.00081;-4.65232;,
 0.00000;-0.00081;-4.65232;,
 0.00000;-0.00081;-4.65232;,
 0.00000;-0.00081;-4.65232;,
 0.00000;-0.00081;-4.65232;,
 0.00000;-0.00081;-4.65232;,
 0.00000;-0.00081;-4.65232;,
 0.00000;-0.00081;-4.65232;,
 0.00000;-0.00081;-4.65232;,
 0.00000;-0.00081;-4.65232;,
 0.00000;-0.00081;-4.65232;,
 0.00000;-0.00081;-4.65232;,
 0.00000;-0.00081;-4.65232;,
 0.00000;-0.00081;-4.65232;,
 0.00000;-0.00081;-4.65232;,
 0.00000;-0.00081;-4.65232;,
 0.00000;-0.00081;-4.65232;,
 0.00000;-0.91838;-3.77827;,
 0.00000;0.00339;-9.85040;,
 -0.28484;-0.87326;-3.77827;,
 0.00000;0.00339;-9.85040;,
 -0.54180;-0.74234;-3.77827;,
 0.00000;0.00339;-9.85040;,
 -0.74573;-0.53841;-3.77827;,
 0.00000;0.00339;-9.85040;,
 -0.87666;-0.28145;-3.77827;,
 0.00000;0.00339;-9.85040;,
 -0.92177;0.00339;-3.77827;,
 0.00000;0.00339;-9.85040;,
 -0.87666;0.28823;-3.77827;,
 0.00000;0.00339;-9.85040;,
 -0.74573;0.54519;-3.77827;,
 0.00000;0.00339;-9.85040;,
 -0.54180;0.74912;-3.77827;,
 0.00000;0.00339;-9.85040;,
 -0.28484;0.88005;-3.77827;,
 0.00000;0.00339;-9.85040;,
 0.00000;0.92516;-3.77827;,
 0.00000;0.00339;-9.85040;,
 0.28484;0.88005;-3.77827;,
 0.00000;0.00339;-9.85040;,
 0.54180;0.74912;-3.77827;,
 0.00000;0.00339;-9.85040;,
 0.74573;0.54519;-3.77827;,
 0.00000;0.00339;-9.85040;,
 0.87666;0.28823;-3.77827;,
 0.00000;0.00339;-9.85040;,
 0.92177;0.00339;-3.77827;,
 0.00000;0.00339;-9.85040;,
 0.87666;-0.28145;-3.77827;,
 0.00000;0.00339;-9.85040;,
 0.74573;-0.53841;-3.77827;,
 0.00000;0.00339;-9.85040;,
 0.54180;-0.74234;-3.77827;,
 0.00000;0.00339;-9.85040;,
 0.28484;-0.87326;-3.77827;,
 0.00000;0.00339;-9.85040;,
 0.00000;-0.91838;-3.77827;,
 0.00000;0.00339;-3.77827;,
 0.00000;-0.91838;-3.77827;,
 -0.28484;-0.87326;-3.77827;,
 -0.54180;-0.74234;-3.77827;,
 -0.74573;-0.53841;-3.77827;,
 -0.87666;-0.28145;-3.77827;,
 -0.92177;0.00339;-3.77827;,
 -0.87666;0.28823;-3.77827;,
 -0.74573;0.54519;-3.77827;,
 -0.54180;0.74912;-3.77827;,
 -0.28484;0.88005;-3.77827;,
 0.00000;0.92516;-3.77827;,
 0.28484;0.88005;-3.77827;,
 0.54180;0.74912;-3.77827;,
 0.74573;0.54519;-3.77827;,
 0.87666;0.28823;-3.77827;,
 0.92177;0.00339;-3.77827;,
 0.87666;-0.28145;-3.77827;,
 0.74573;-0.53841;-3.77827;,
 0.54180;-0.74234;-3.77827;,
 0.28484;-0.87326;-3.77827;;
 
 133;
 4;3,2,1,0;,
 4;2,5,4,1;,
 4;5,7,6,4;,
 4;7,9,8,6;,
 4;9,11,10,8;,
 4;11,13,12,10;,
 4;13,15,14,12;,
 4;15,17,16,14;,
 4;17,19,18,16;,
 4;19,21,20,18;,
 4;21,23,22,20;,
 4;23,25,24,22;,
 4;25,27,26,24;,
 4;27,29,28,26;,
 4;29,31,30,28;,
 4;31,33,32,30;,
 4;33,35,34,32;,
 4;35,37,36,34;,
 4;37,39,38,36;,
 4;39,41,40,38;,
 4;41,43,42,40;,
 4;43,45,44,42;,
 4;45,47,46,44;,
 4;47,49,48,46;,
 4;49,51,50,48;,
 4;51,53,52,50;,
 4;53,55,54,52;,
 4;55,57,56,54;,
 4;57,59,58,56;,
 4;59,61,60,58;,
 4;61,63,62,60;,
 3;0,1,64;,
 3;1,4,65;,
 3;4,6,66;,
 3;6,8,67;,
 3;8,10,68;,
 3;10,12,69;,
 3;12,14,70;,
 3;14,16,71;,
 3;16,18,72;,
 3;18,20,73;,
 3;20,22,74;,
 3;22,24,75;,
 3;24,26,76;,
 3;26,28,77;,
 3;28,30,78;,
 3;30,32,79;,
 3;32,34,80;,
 3;34,36,81;,
 3;36,38,82;,
 3;38,40,83;,
 3;40,42,84;,
 3;42,44,85;,
 3;44,46,86;,
 3;46,48,87;,
 3;48,50,88;,
 3;50,52,89;,
 3;52,54,90;,
 3;54,56,91;,
 3;56,58,92;,
 3;58,60,93;,
 3;60,62,94;,
 3;2,3,95;,
 3;5,2,96;,
 3;7,5,97;,
 3;9,7,98;,
 3;11,9,99;,
 3;13,11,100;,
 3;15,13,101;,
 3;17,15,102;,
 3;19,17,103;,
 3;21,19,104;,
 3;23,21,105;,
 3;25,23,106;,
 3;27,25,107;,
 3;29,27,108;,
 3;31,29,109;,
 3;33,31,110;,
 3;35,33,111;,
 3;37,35,112;,
 3;39,37,113;,
 3;41,39,114;,
 3;43,41,115;,
 3;45,43,116;,
 3;47,45,117;,
 3;49,47,118;,
 3;51,49,119;,
 3;53,51,120;,
 3;55,53,121;,
 3;57,55,122;,
 3;59,57,123;,
 3;61,59,124;,
 3;63,61,125;,
 3;128,127,126;,
 3;130,129,128;,
 3;132,131,130;,
 3;134,133,132;,
 3;136,135,134;,
 3;138,137,136;,
 3;140,139,138;,
 3;142,141,140;,
 3;144,143,142;,
 3;146,145,144;,
 3;148,147,146;,
 3;150,149,148;,
 3;152,151,150;,
 3;154,153,152;,
 3;156,155,154;,
 3;158,157,156;,
 3;160,159,158;,
 3;162,161,160;,
 3;164,163,162;,
 3;166,165,164;,
 3;169,168,167;,
 3;170,169,167;,
 3;171,170,167;,
 3;172,171,167;,
 3;173,172,167;,
 3;174,173,167;,
 3;175,174,167;,
 3;176,175,167;,
 3;177,176,167;,
 3;178,177,167;,
 3;179,178,167;,
 3;180,179,167;,
 3;181,180,167;,
 3;182,181,167;,
 3;183,182,167;,
 3;184,183,167;,
 3;185,184,167;,
 3;186,185,167;,
 3;187,186,167;,
 3;168,187,167;;
 
 MeshMaterialList {
  1;
  133;
  0,
  0,
  0,
  0,
  0,
  0,
  0,
  0,
  0,
  0,
  0,
  0,
  0,
  0,
  0,
  0,
  0,
  0,
  0,
  0,
  0,
  0,
  0,
  0,
  0,
  0,
  0,
  0,
  0,
  0,
  0,
  0,
  0,
  0,
  0,
  0,
  0,
  0,
  0,
  0,
  0,
  0,
  0,
  0,
  0,
  0,
  0,
  0,
  0,
  0,
  0,
  0,
  0,
  0,
  0,
  0,
  0,
  0,
  0,
  0,
  0,
  0,
  0,
  0,
  0,
  0,
  0,
  0,
  0,
  0,
  0,
  0,
  0,
  0,
  0,
  0,
  0,
  0,
  0,
  0,
  0,
  0,
  0,
  0,
  0,
  0,
  0,
  0,
  0,
  0,
  0,
  0,
  0,
  0,
  0,
  0,
  0,
  0,
  0,
  0,
  0,
  0,
  0,
  0,
  0,
  0,
  0,
  0,
  0,
  0,
  0,
  0,
  0,
  0,
  0,
  0,
  0,
  0,
  0,
  0,
  0,
  0,
  0,
  0,
  0,
  0,
  0,
  0,
  0,
  0,
  0,
  0,
  0;;
  Material {
   1.000000;1.000000;1.000000;1.000000;;
   0.000000;
   0.000000;0.000000;0.000000;;
   0.000000;0.000000;0.000000;;
  }
 }
 MeshNormals {
  62;
  0.000000;0.000000;1.000000;,
  -0.000000;1.000000;0.000000;,
  -0.201298;0.979530;0.000000;,
  -0.394357;0.918957;0.000000;,
  -0.571268;0.820764;0.000000;,
  -0.724792;0.688967;0.000000;,
  -0.848644;0.528964;0.000000;,
  -0.937752;0.347305;0.000000;,
  -0.988469;0.151426;0.000000;,
  -0.998716;-0.050651;-0.000000;,
  -0.968077;-0.250652;-0.000000;,
  -0.897805;-0.440393;-0.000000;,
  -0.790776;-0.612105;-0.000000;,
  -0.651372;-0.758758;-0.000000;,
  -0.485300;-0.874348;-0.000000;,
  -0.299363;-0.954139;-0.000000;,
  -0.101169;-0.994869;-0.000000;,
  0.101170;-0.994869;-0.000000;,
  0.299364;-0.954139;-0.000000;,
  0.485301;-0.874347;-0.000000;,
  0.651372;-0.758758;-0.000000;,
  0.790777;-0.612104;-0.000000;,
  0.897805;-0.440392;-0.000000;,
  0.968078;-0.250651;-0.000000;,
  0.998716;-0.050649;-0.000000;,
  0.988469;0.151426;0.000000;,
  0.937752;0.347306;0.000000;,
  0.848644;0.528965;0.000000;,
  0.724792;0.688968;0.000000;,
  0.571268;0.820764;0.000000;,
  0.394356;0.918958;0.000000;,
  0.201297;0.979530;0.000000;,
  0.000000;0.000000;-1.000000;,
  0.000000;-0.988673;-0.150084;,
  -0.305518;-0.940284;-0.150084;,
  -0.581129;-0.799852;-0.150084;,
  -0.799853;-0.581128;-0.150084;,
  -0.940284;-0.305516;-0.150084;,
  -0.988673;0.000000;-0.150084;,
  -0.940284;0.305516;-0.150084;,
  -0.799853;0.581128;-0.150084;,
  -0.581128;0.799853;-0.150084;,
  -0.305516;0.940284;-0.150084;,
  0.000001;0.988673;-0.150084;,
  0.305517;0.940284;-0.150084;,
  0.581128;0.799853;-0.150084;,
  0.799854;0.581127;-0.150084;,
  0.940285;0.305515;-0.150084;,
  0.988673;-0.000001;-0.150084;,
  0.940284;-0.305517;-0.150084;,
  0.799853;-0.581129;-0.150084;,
  0.581128;-0.799853;-0.150084;,
  0.305517;-0.940284;-0.150084;,
  -0.797048;-0.579089;-0.171378;,
  0.000000;-0.000002;1.000000;,
  -0.304445;0.936986;-0.171378;,
  0.985205;-0.000001;-0.171378;,
  0.000000;-0.000007;1.000000;,
  0.000008;-0.000010;1.000000;,
  0.000009;-0.000006;1.000000;,
  -0.000009;-0.000006;1.000000;,
  -0.000008;-0.000010;1.000000;;
  133;
  4;1,2,2,1;,
  4;2,3,3,2;,
  4;3,4,4,3;,
  4;4,5,5,4;,
  4;5,6,6,5;,
  4;6,7,7,6;,
  4;7,8,8,7;,
  4;8,9,9,8;,
  4;9,10,10,9;,
  4;10,11,11,10;,
  4;11,12,12,11;,
  4;12,13,13,12;,
  4;13,14,14,13;,
  4;14,15,15,14;,
  4;15,16,16,15;,
  4;16,17,17,16;,
  4;17,18,18,17;,
  4;18,19,19,18;,
  4;19,20,20,19;,
  4;20,21,21,20;,
  4;21,22,22,21;,
  4;22,23,23,22;,
  4;23,24,24,23;,
  4;24,25,25,24;,
  4;25,26,26,25;,
  4;26,27,27,26;,
  4;27,28,28,27;,
  4;28,29,29,28;,
  4;29,30,30,29;,
  4;30,31,31,30;,
  4;31,1,1,31;,
  3;0,0,0;,
  3;0,0,0;,
  3;0,0,0;,
  3;0,0,0;,
  3;0,0,0;,
  3;0,0,0;,
  3;0,0,0;,
  3;0,0,0;,
  3;0,0,0;,
  3;0,0,0;,
  3;0,0,0;,
  3;0,0,0;,
  3;0,0,0;,
  3;0,0,0;,
  3;0,0,0;,
  3;0,0,0;,
  3;0,0,0;,
  3;0,0,0;,
  3;0,0,0;,
  3;0,0,0;,
  3;0,0,0;,
  3;0,0,0;,
  3;0,0,0;,
  3;0,0,0;,
  3;0,0,0;,
  3;0,0,0;,
  3;0,0,0;,
  3;0,0,0;,
  3;0,0,0;,
  3;0,0,0;,
  3;0,0,0;,
  3;32,32,32;,
  3;32,32,32;,
  3;32,32,32;,
  3;32,32,32;,
  3;32,32,32;,
  3;32,32,32;,
  3;32,32,32;,
  3;32,32,32;,
  3;32,32,32;,
  3;32,32,32;,
  3;32,32,32;,
  3;32,32,32;,
  3;32,32,32;,
  3;32,32,32;,
  3;32,32,32;,
  3;32,32,32;,
  3;32,32,32;,
  3;32,32,32;,
  3;32,32,32;,
  3;32,32,32;,
  3;32,32,32;,
  3;32,32,32;,
  3;32,32,32;,
  3;32,32,32;,
  3;32,32,32;,
  3;32,32,32;,
  3;32,32,32;,
  3;32,32,32;,
  3;32,32,32;,
  3;32,32,32;,
  3;32,32,32;,
  3;34,53,33;,
  3;35,53,34;,
  3;36,53,35;,
  3;37,53,36;,
  3;38,53,37;,
  3;39,53,38;,
  3;40,55,39;,
  3;41,55,40;,
  3;42,55,41;,
  3;43,55,42;,
  3;44,55,43;,
  3;45,55,44;,
  3;46,56,45;,
  3;47,56,46;,
  3;48,56,47;,
  3;49,56,48;,
  3;50,56,49;,
  3;51,56,50;,
  3;52,52,51;,
  3;33,52,52;,
  3;58,57,54;,
  3;59,58,54;,
  3;0,59,54;,
  3;0,0,54;,
  3;0,0,54;,
  3;0,0,54;,
  3;0,0,54;,
  3;0,0,54;,
  3;0,0,54;,
  3;0,0,54;,
  3;0,0,54;,
  3;0,0,54;,
  3;0,0,54;,
  3;0,0,54;,
  3;0,0,54;,
  3;0,0,54;,
  3;0,0,54;,
  3;60,0,54;,
  3;61,60,54;,
  3;57,61,54;;
 }
 MeshTextureCoords {
  188;
  0.000000;0.000000;,
  0.032258;0.000000;,
  0.032258;1.000000;,
  0.000000;1.000000;,
  0.064516;0.000000;,
  0.064516;1.000000;,
  0.096774;0.000000;,
  0.096774;1.000000;,
  0.129032;0.000000;,
  0.129032;1.000000;,
  0.161290;0.000000;,
  0.161290;1.000000;,
  0.193548;0.000000;,
  0.193548;1.000000;,
  0.225806;0.000000;,
  0.225806;1.000000;,
  0.258065;0.000000;,
  0.258065;1.000000;,
  0.290323;0.000000;,
  0.290323;1.000000;,
  0.322581;0.000000;,
  0.322581;1.000000;,
  0.354839;0.000000;,
  0.354839;1.000000;,
  0.387097;0.000000;,
  0.387097;1.000000;,
  0.419355;0.000000;,
  0.419355;1.000000;,
  0.451613;0.000000;,
  0.451613;1.000000;,
  0.483871;0.000000;,
  0.483871;1.000000;,
  0.516129;0.000000;,
  0.516129;1.000000;,
  0.548387;0.000000;,
  0.548387;1.000000;,
  0.580645;0.000000;,
  0.580645;1.000000;,
  0.612903;0.000000;,
  0.612903;1.000000;,
  0.645161;0.000000;,
  0.645161;1.000000;,
  0.677419;0.000000;,
  0.677419;1.000000;,
  0.709677;0.000000;,
  0.709677;1.000000;,
  0.741935;0.000000;,
  0.741935;1.000000;,
  0.774193;0.000000;,
  0.774193;1.000000;,
  0.806451;0.000000;,
  0.806451;1.000000;,
  0.838709;0.000000;,
  0.838709;1.000000;,
  0.870967;0.000000;,
  0.870967;1.000000;,
  0.903225;0.000000;,
  0.903225;1.000000;,
  0.935483;0.000000;,
  0.935483;1.000000;,
  0.967741;0.000000;,
  0.967741;1.000000;,
  1.000000;0.000000;,
  1.000000;1.000000;,
  0.016129;0.000000;,
  0.048387;0.000000;,
  0.080645;0.000000;,
  0.112903;0.000000;,
  0.145161;0.000000;,
  0.177419;0.000000;,
  0.209677;0.000000;,
  0.241935;0.000000;,
  0.274194;0.000000;,
  0.306452;0.000000;,
  0.338710;0.000000;,
  0.370968;0.000000;,
  0.403226;0.000000;,
  0.435484;0.000000;,
  0.467742;0.000000;,
  0.500000;0.000000;,
  0.532258;0.000000;,
  0.564516;0.000000;,
  0.596774;0.000000;,
  0.629032;0.000000;,
  0.661290;0.000000;,
  0.693548;0.000000;,
  0.725806;0.000000;,
  0.758064;0.000000;,
  0.790322;0.000000;,
  0.822580;0.000000;,
  0.854838;0.000000;,
  0.887096;0.000000;,
  0.919354;0.000000;,
  0.951612;0.000000;,
  0.983871;0.000000;,
  0.016129;1.000000;,
  0.048387;1.000000;,
  0.080645;1.000000;,
  0.112903;1.000000;,
  0.145161;1.000000;,
  0.177419;1.000000;,
  0.209677;1.000000;,
  0.241935;1.000000;,
  0.274194;1.000000;,
  0.306452;1.000000;,
  0.338710;1.000000;,
  0.370968;1.000000;,
  0.403226;1.000000;,
  0.435484;1.000000;,
  0.467742;1.000000;,
  0.500000;1.000000;,
  0.532258;1.000000;,
  0.564516;1.000000;,
  0.596774;1.000000;,
  0.629032;1.000000;,
  0.661290;1.000000;,
  0.693548;1.000000;,
  0.725806;1.000000;,
  0.758064;1.000000;,
  0.790322;1.000000;,
  0.822580;1.000000;,
  0.854838;1.000000;,
  0.887096;1.000000;,
  0.919354;1.000000;,
  0.951612;1.000000;,
  0.983871;1.000000;,
  0.000000;1.000000;,
  0.025000;0.000000;,
  0.050000;1.000000;,
  0.050000;0.000000;,
  0.100000;1.000000;,
  0.075000;0.000000;,
  0.150000;1.000000;,
  0.100000;0.000000;,
  0.200000;1.000000;,
  0.125000;0.000000;,
  0.250000;1.000000;,
  0.150000;0.000000;,
  0.300000;1.000000;,
  0.175000;0.000000;,
  0.350000;1.000000;,
  0.200000;0.000000;,
  0.400000;1.000000;,
  0.225000;0.000000;,
  0.450000;1.000000;,
  0.250000;0.000000;,
  0.500000;1.000000;,
  0.275000;0.000000;,
  0.550000;1.000000;,
  0.300000;0.000000;,
  0.600000;1.000000;,
  0.325000;0.000000;,
  0.650000;1.000000;,
  0.350000;0.000000;,
  0.700000;1.000000;,
  0.375000;0.000000;,
  0.750000;1.000000;,
  0.400000;0.000000;,
  0.800000;1.000000;,
  0.425000;0.000000;,
  0.850000;1.000000;,
  0.450000;0.000000;,
  0.900000;1.000000;,
  0.475000;0.000000;,
  0.950000;1.000000;,
  0.500000;0.000000;,
  1.000000;1.000000;,
  0.000000;0.000000;,
  0.000000;0.000000;,
  0.000000;0.000000;,
  0.000000;0.000000;,
  0.000000;0.000000;,
  0.000000;0.000000;,
  0.000000;0.000000;,
  0.000000;0.000000;,
  0.000000;0.000000;,
  0.000000;0.000000;,
  0.000000;0.000000;,
  0.000000;0.000000;,
  0.000000;0.000000;,
  0.000000;0.000000;,
  0.000000;0.000000;,
  0.000000;0.000000;,
  0.000000;0.000000;,
  0.000000;0.000000;,
  0.000000;0.000000;,
  0.000000;0.000000;,
  0.000000;0.000000;;
 }
}
