xof 0302txt 0064
template Header {
 <3D82AB43-62DA-11cf-AB39-0020AF71E433>
 WORD major;
 WORD minor;
 DWORD flags;
}

template Vector {
 <3D82AB5E-62DA-11cf-AB39-0020AF71E433>
 FLOAT x;
 FLOAT y;
 FLOAT z;
}

template Coords2d {
 <F6F23F44-7686-11cf-8F52-0040333594A3>
 FLOAT u;
 FLOAT v;
}

template Matrix4x4 {
 <F6F23F45-7686-11cf-8F52-0040333594A3>
 array FLOAT matrix[16];
}

template ColorRGBA {
 <35FF44E0-6C7C-11cf-8F52-0040333594A3>
 FLOAT red;
 FLOAT green;
 FLOAT blue;
 FLOAT alpha;
}

template ColorRGB {
 <D3E16E81-7835-11cf-8F52-0040333594A3>
 FLOAT red;
 FLOAT green;
 FLOAT blue;
}

template IndexedColor {
 <1630B820-7842-11cf-8F52-0040333594A3>
 DWORD index;
 ColorRGBA indexColor;
}

template Boolean {
 <4885AE61-78E8-11cf-8F52-0040333594A3>
 WORD truefalse;
}

template Boolean2d {
 <4885AE63-78E8-11cf-8F52-0040333594A3>
 Boolean u;
 Boolean v;
}

template MaterialWrap {
 <4885AE60-78E8-11cf-8F52-0040333594A3>
 Boolean u;
 Boolean v;
}

template TextureFilename {
 <A42790E1-7810-11cf-8F52-0040333594A3>
 STRING filename;
}

template Material {
 <3D82AB4D-62DA-11cf-AB39-0020AF71E433>
 ColorRGBA faceColor;
 FLOAT power;
 ColorRGB specularColor;
 ColorRGB emissiveColor;
 [...]
}

template MeshFace {
 <3D82AB5F-62DA-11cf-AB39-0020AF71E433>
 DWORD nFaceVertexIndices;
 array DWORD faceVertexIndices[nFaceVertexIndices];
}

template MeshFaceWraps {
 <4885AE62-78E8-11cf-8F52-0040333594A3>
 DWORD nFaceWrapValues;
 Boolean2d faceWrapValues;
}

template MeshTextureCoords {
 <F6F23F40-7686-11cf-8F52-0040333594A3>
 DWORD nTextureCoords;
 array Coords2d textureCoords[nTextureCoords];
}

template MeshMaterialList {
 <F6F23F42-7686-11cf-8F52-0040333594A3>
 DWORD nMaterials;
 DWORD nFaceIndexes;
 array DWORD faceIndexes[nFaceIndexes];
 [Material]
}

template MeshNormals {
 <F6F23F43-7686-11cf-8F52-0040333594A3>
 DWORD nNormals;
 array Vector normals[nNormals];
 DWORD nFaceNormals;
 array MeshFace faceNormals[nFaceNormals];
}

template MeshVertexColors {
 <1630B821-7842-11cf-8F52-0040333594A3>
 DWORD nVertexColors;
 array IndexedColor vertexColors[nVertexColors];
}

template Mesh {
 <3D82AB44-62DA-11cf-AB39-0020AF71E433>
 DWORD nVertices;
 array Vector vertices[nVertices];
 DWORD nFaces;
 array MeshFace faces[nFaces];
 [...]
}

Header{
1;
0;
1;
}

Mesh {
 150;
 0.00000;1.86224;0.13310;,
 -0.36331;1.82646;0.13310;,
 -0.36331;1.82646;-0.13310;,
 0.00000;1.86225;-0.13310;,
 -0.71265;1.72049;0.13310;,
 -0.71265;1.72049;-0.13310;,
 -1.03461;1.54840;0.13310;,
 -1.03461;1.54840;-0.13310;,
 -1.31681;1.31681;0.13310;,
 -1.31681;1.31681;-0.13310;,
 -1.54840;1.03461;0.13310;,
 -1.54840;1.03461;-0.13310;,
 -1.72049;0.71265;0.13310;,
 -1.72049;0.71265;-0.13310;,
 -1.82646;0.36331;0.13310;,
 -1.82646;0.36331;-0.13310;,
 -1.86225;0.00000;0.13310;,
 -1.86225;0.00000;-0.13310;,
 -1.82646;-0.36331;0.13310;,
 -1.82646;-0.36331;-0.13310;,
 -1.72049;-0.71265;0.13310;,
 -1.72049;-0.71265;-0.13310;,
 -1.54840;-1.03461;0.13310;,
 -1.54840;-1.03461;-0.13310;,
 -1.31681;-1.31681;0.13310;,
 -1.31681;-1.31681;-0.13310;,
 -1.03461;-1.54840;0.13310;,
 -1.03461;-1.54840;-0.13310;,
 -0.71265;-1.72049;0.13310;,
 -0.71265;-1.72049;-0.13310;,
 -0.36331;-1.82646;0.13310;,
 -0.36331;-1.82646;-0.13310;,
 0.00000;-1.86225;0.13310;,
 0.00000;-1.86224;-0.13310;,
 0.36331;-1.82646;0.13310;,
 0.36331;-1.82646;-0.13310;,
 0.71265;-1.72049;0.13310;,
 0.71265;-1.72049;-0.13310;,
 1.03461;-1.54840;0.13310;,
 1.03461;-1.54840;-0.13310;,
 1.31681;-1.31681;0.13310;,
 1.31681;-1.31681;-0.13310;,
 1.54840;-1.03461;0.13310;,
 1.54840;-1.03461;-0.13310;,
 1.72049;-0.71265;0.13310;,
 1.72049;-0.71265;-0.13310;,
 1.82646;-0.36330;0.13310;,
 1.82646;-0.36330;-0.13310;,
 1.86225;0.00000;0.13310;,
 1.86225;0.00000;-0.13310;,
 1.82646;0.36331;0.13310;,
 1.82646;0.36331;-0.13310;,
 1.72049;0.71265;0.13310;,
 1.72049;0.71265;-0.13310;,
 1.54840;1.03461;0.13310;,
 1.54840;1.03461;-0.13310;,
 1.31681;1.31681;0.13310;,
 1.31681;1.31681;-0.13310;,
 1.03461;1.54840;0.13310;,
 1.03461;1.54840;-0.13310;,
 0.71265;1.72049;0.13310;,
 0.71265;1.72049;-0.13310;,
 0.36330;1.82646;0.13310;,
 0.36330;1.82646;-0.13310;,
 0.00000;1.86224;0.13310;,
 0.00000;1.86225;-0.13310;,
 -0.00000;-0.00000;0.13310;,
 -0.00000;-0.00000;0.13310;,
 -0.00000;-0.00000;0.13310;,
 -0.00000;-0.00000;0.13310;,
 -0.00000;-0.00000;0.13310;,
 -0.00000;-0.00000;0.13310;,
 -0.00000;-0.00000;0.13310;,
 -0.00000;-0.00000;0.13310;,
 -0.00000;-0.00000;0.13310;,
 -0.00000;-0.00000;0.13310;,
 -0.00000;-0.00000;0.13310;,
 -0.00000;-0.00000;0.13310;,
 -0.00000;-0.00000;0.13310;,
 -0.00000;-0.00000;0.13310;,
 -0.00000;-0.00000;0.13310;,
 -0.00000;-0.00000;0.13310;,
 -0.00000;-0.00000;0.13310;,
 -0.00000;-0.00000;0.13310;,
 -0.00000;-0.00000;0.13310;,
 -0.00000;-0.00000;0.13310;,
 -0.00000;-0.00000;0.13310;,
 -0.00000;-0.00000;0.13310;,
 -0.00000;-0.00000;0.13310;,
 -0.00000;-0.00000;0.13310;,
 -0.00000;-0.00000;0.13310;,
 -0.00000;-0.00000;0.13310;,
 -0.00000;-0.00000;0.13310;,
 -0.00000;-0.00000;0.13310;,
 -0.00000;-0.00000;0.13310;,
 -0.00000;-0.00000;0.13310;,
 -0.00000;-0.00000;0.13310;,
 -0.00000;-0.00000;0.13310;,
 0.00000;0.00000;-0.13310;,
 0.00000;0.00000;-0.13310;,
 0.00000;0.00000;-0.13310;,
 0.00000;0.00000;-0.13310;,
 0.00000;0.00000;-0.13310;,
 0.00000;0.00000;-0.13310;,
 0.00000;0.00000;-0.13310;,
 0.00000;0.00000;-0.13310;,
 0.00000;0.00000;-0.13310;,
 0.00000;0.00000;-0.13310;,
 0.00000;0.00000;-0.13310;,
 0.00000;0.00000;-0.13310;,
 0.00000;0.00000;-0.13310;,
 0.00000;0.00000;-0.13310;,
 0.00000;0.00000;-0.13310;,
 0.00000;0.00000;-0.13310;,
 0.00000;0.00000;-0.13310;,
 0.00000;0.00000;-0.13310;,
 0.00000;0.00000;-0.13310;,
 0.00000;0.00000;-0.13310;,
 0.00000;0.00000;-0.13310;,
 0.00000;0.00000;-0.13310;,
 0.00000;0.00000;-0.13310;,
 0.00000;0.00000;-0.13310;,
 0.00000;0.00000;-0.13310;,
 0.00000;0.00000;-0.13310;,
 0.00000;0.00000;-0.13310;,
 0.00000;0.00000;-0.13310;,
 0.00000;0.00000;-0.13310;,
 0.00000;0.00000;-0.13310;,
 0.00000;0.00000;-0.13310;,
 0.00000;0.00000;-0.13310;,
 0.24338;1.45122;-0.18315;,
 -0.24338;1.45122;-0.18315;,
 -0.24338;-1.45122;-0.18315;,
 0.24338;-1.45122;-0.18315;,
 -0.24338;1.45122;-0.18315;,
 -0.24338;1.45122;0.18315;,
 -0.24338;-1.45122;0.18315;,
 -0.24338;-1.45122;-0.18315;,
 -0.24338;1.45122;0.18315;,
 0.24338;1.45122;0.18315;,
 0.24338;-1.45122;0.18315;,
 -0.24338;-1.45122;0.18315;,
 0.24338;1.45122;0.18315;,
 0.24338;1.45122;-0.18315;,
 0.24338;-1.45122;-0.18315;,
 0.24338;-1.45122;0.18315;,
 -0.24338;1.45122;-0.18315;,
 0.24338;1.45122;-0.18315;,
 0.24338;-1.45122;-0.18315;,
 -0.24338;-1.45122;-0.18315;;
 
 102;
 4;3,2,1,0;,
 4;2,5,4,1;,
 4;5,7,6,4;,
 4;7,9,8,6;,
 4;9,11,10,8;,
 4;11,13,12,10;,
 4;13,15,14,12;,
 4;15,17,16,14;,
 4;17,19,18,16;,
 4;19,21,20,18;,
 4;21,23,22,20;,
 4;23,25,24,22;,
 4;25,27,26,24;,
 4;27,29,28,26;,
 4;29,31,30,28;,
 4;31,33,32,30;,
 4;33,35,34,32;,
 4;35,37,36,34;,
 4;37,39,38,36;,
 4;39,41,40,38;,
 4;41,43,42,40;,
 4;43,45,44,42;,
 4;45,47,46,44;,
 4;47,49,48,46;,
 4;49,51,50,48;,
 4;51,53,52,50;,
 4;53,55,54,52;,
 4;55,57,56,54;,
 4;57,59,58,56;,
 4;59,61,60,58;,
 4;61,63,62,60;,
 4;63,65,64,62;,
 3;0,1,66;,
 3;1,4,67;,
 3;4,6,68;,
 3;6,8,69;,
 3;8,10,70;,
 3;10,12,71;,
 3;12,14,72;,
 3;14,16,73;,
 3;16,18,74;,
 3;18,20,75;,
 3;20,22,76;,
 3;22,24,77;,
 3;24,26,78;,
 3;26,28,79;,
 3;28,30,80;,
 3;30,32,81;,
 3;32,34,82;,
 3;34,36,83;,
 3;36,38,84;,
 3;38,40,85;,
 3;40,42,86;,
 3;42,44,87;,
 3;44,46,88;,
 3;46,48,89;,
 3;48,50,90;,
 3;50,52,91;,
 3;52,54,92;,
 3;54,56,93;,
 3;56,58,94;,
 3;58,60,95;,
 3;60,62,96;,
 3;62,64,97;,
 3;2,3,98;,
 3;5,2,99;,
 3;7,5,100;,
 3;9,7,101;,
 3;11,9,102;,
 3;13,11,103;,
 3;15,13,104;,
 3;17,15,105;,
 3;19,17,106;,
 3;21,19,107;,
 3;23,21,108;,
 3;25,23,109;,
 3;27,25,110;,
 3;29,27,111;,
 3;31,29,112;,
 3;33,31,113;,
 3;35,33,114;,
 3;37,35,115;,
 3;39,37,116;,
 3;41,39,117;,
 3;43,41,118;,
 3;45,43,119;,
 3;47,45,120;,
 3;49,47,121;,
 3;51,49,122;,
 3;53,51,123;,
 3;55,53,124;,
 3;57,55,125;,
 3;59,57,126;,
 3;61,59,127;,
 3;63,61,128;,
 3;65,63,129;,
 4;133,132,131,130;,
 4;137,136,135,134;,
 4;141,140,139,138;,
 4;145,144,143,142;,
 4;147,146,135,142;,
 4;145,136,149,148;;
 
 MeshMaterialList {
  1;
  102;
  0,
  0,
  0,
  0,
  0,
  0,
  0,
  0,
  0,
  0,
  0,
  0,
  0,
  0,
  0,
  0,
  0,
  0,
  0,
  0,
  0,
  0,
  0,
  0,
  0,
  0,
  0,
  0,
  0,
  0,
  0,
  0,
  0,
  0,
  0,
  0,
  0,
  0,
  0,
  0,
  0,
  0,
  0,
  0,
  0,
  0,
  0,
  0,
  0,
  0,
  0,
  0,
  0,
  0,
  0,
  0,
  0,
  0,
  0,
  0,
  0,
  0,
  0,
  0,
  0,
  0,
  0,
  0,
  0,
  0,
  0,
  0,
  0,
  0,
  0,
  0,
  0,
  0,
  0,
  0,
  0,
  0,
  0,
  0,
  0,
  0,
  0,
  0,
  0,
  0,
  0,
  0,
  0,
  0,
  0,
  0,
  0,
  0,
  0,
  0,
  0,
  0;;
  Material {
   0.800000;0.793726;0.000000;1.000000;;
   5.000000;
   0.000000;0.000000;0.000000;;
   0.000000;0.000000;0.000000;;
  }
 }
 MeshNormals {
  56;
  -0.000000;-0.000000;1.000000;,
  -0.000000;1.000000;0.000003;,
  -0.195089;0.980785;0.000002;,
  -0.382684;0.923879;0.000001;,
  -0.555570;0.831470;0.000001;,
  -0.707107;0.707107;0.000001;,
  -0.831470;0.555570;0.000001;,
  -0.923879;0.382684;0.000000;,
  -0.980786;0.195089;0.000000;,
  -1.000000;-0.000000;-0.000000;,
  -0.980786;-0.195089;-0.000000;,
  -0.923879;-0.382684;-0.000000;,
  -0.831470;-0.555570;-0.000001;,
  -0.707107;-0.707107;-0.000001;,
  -0.555569;-0.831470;-0.000000;,
  -0.382684;-0.923880;-0.000001;,
  -0.195089;-0.980786;-0.000002;,
  -0.000000;-1.000000;-0.000003;,
  0.195090;-0.980785;-0.000003;,
  0.382684;-0.923879;-0.000003;,
  0.555569;-0.831470;-0.000002;,
  0.707108;-0.707105;-0.000001;,
  0.831470;-0.555569;-0.000000;,
  0.923879;-0.382684;-0.000000;,
  0.980786;-0.195088;-0.000000;,
  1.000000;0.000002;-0.000000;,
  0.980785;0.195091;0.000000;,
  0.923879;0.382684;0.000000;,
  0.831470;0.555569;0.000000;,
  0.707105;0.707108;0.000001;,
  0.555568;0.831471;0.000001;,
  0.382683;0.923880;0.000001;,
  0.195088;0.980786;0.000001;,
  -0.000000;0.000000;-1.000000;,
  0.000000;-0.000000;1.000000;,
  0.000000;-0.000000;1.000000;,
  -0.000000;-0.000000;1.000000;,
  -0.000000;-0.000000;1.000000;,
  -0.000000;0.000000;1.000000;,
  0.000000;-0.000000;1.000000;,
  0.000000;-0.000000;1.000000;,
  -0.000000;-0.000000;1.000000;,
  0.000000;0.000000;-1.000000;,
  -0.000000;0.000000;-1.000000;,
  -0.000000;0.000000;-1.000000;,
  0.000000;0.000000;-1.000000;,
  0.000000;0.000000;-1.000000;,
  -0.000000;0.000000;-1.000000;,
  0.000000;0.000000;-1.000000;,
  0.000000;0.000000;-1.000000;,
  0.000000;0.000000;-1.000000;,
  -1.000000;0.000000;0.000000;,
  0.000000;0.000000;1.000000;,
  1.000000;0.000000;0.000000;,
  0.000000;1.000000;0.000000;,
  0.000000;-1.000000;0.000000;;
  102;
  4;1,2,2,1;,
  4;2,3,3,2;,
  4;3,4,4,3;,
  4;4,5,5,4;,
  4;5,6,6,5;,
  4;6,7,7,6;,
  4;7,8,8,7;,
  4;8,9,9,8;,
  4;9,10,10,9;,
  4;10,11,11,10;,
  4;11,12,12,11;,
  4;12,13,13,12;,
  4;13,14,14,13;,
  4;14,15,15,14;,
  4;15,16,16,15;,
  4;16,17,17,16;,
  4;17,18,18,17;,
  4;18,19,19,18;,
  4;19,20,20,19;,
  4;20,21,21,20;,
  4;21,22,22,21;,
  4;22,23,23,22;,
  4;23,24,24,23;,
  4;24,25,25,24;,
  4;25,26,26,25;,
  4;26,27,27,26;,
  4;27,28,28,27;,
  4;28,29,29,28;,
  4;29,30,30,29;,
  4;30,31,31,30;,
  4;31,32,32,31;,
  4;32,1,1,32;,
  3;35,34,0;,
  3;34,36,0;,
  3;36,37,0;,
  3;37,38,0;,
  3;38,38,0;,
  3;38,38,0;,
  3;38,38,0;,
  3;38,38,0;,
  3;38,38,0;,
  3;38,38,0;,
  3;38,38,0;,
  3;38,38,0;,
  3;38,38,0;,
  3;38,38,0;,
  3;38,38,0;,
  3;38,38,0;,
  3;38,38,0;,
  3;38,38,0;,
  3;38,38,0;,
  3;38,38,0;,
  3;38,38,0;,
  3;38,38,0;,
  3;38,38,0;,
  3;38,38,0;,
  3;38,38,0;,
  3;38,38,0;,
  3;38,38,0;,
  3;38,38,0;,
  3;38,39,0;,
  3;39,40,0;,
  3;40,41,0;,
  3;41,35,0;,
  3;42,42,33;,
  3;42,42,33;,
  3;42,42,33;,
  3;42,42,33;,
  3;42,42,33;,
  3;42,42,33;,
  3;42,42,33;,
  3;42,42,33;,
  3;42,42,33;,
  3;42,42,33;,
  3;42,42,33;,
  3;42,42,33;,
  3;43,42,33;,
  3;44,43,33;,
  3;45,44,33;,
  3;46,45,33;,
  3;47,46,33;,
  3;48,47,33;,
  3;49,48,33;,
  3;42,49,33;,
  3;42,42,33;,
  3;42,42,33;,
  3;42,42,33;,
  3;42,42,33;,
  3;42,42,33;,
  3;42,42,33;,
  3;42,42,33;,
  3;42,42,33;,
  3;42,42,33;,
  3;42,42,33;,
  3;42,42,33;,
  3;42,42,33;,
  4;50,50,50,50;,
  4;51,51,51,51;,
  4;52,52,52,52;,
  4;53,53,53,53;,
  4;54,54,54,54;,
  4;55,55,55,55;;
 }
 MeshTextureCoords {
  150;
  0.000000;0.000000;,
  0.031250;0.000000;,
  0.031250;1.000000;,
  0.000000;1.000000;,
  0.062500;0.000000;,
  0.062500;1.000000;,
  0.093750;0.000000;,
  0.093750;1.000000;,
  0.125000;0.000000;,
  0.125000;1.000000;,
  0.156250;0.000000;,
  0.156250;1.000000;,
  0.187500;0.000000;,
  0.187500;1.000000;,
  0.218750;0.000000;,
  0.218750;1.000000;,
  0.250000;0.000000;,
  0.250000;1.000000;,
  0.281250;0.000000;,
  0.281250;1.000000;,
  0.312500;0.000000;,
  0.312500;1.000000;,
  0.343750;0.000000;,
  0.343750;1.000000;,
  0.375000;0.000000;,
  0.375000;1.000000;,
  0.406250;0.000000;,
  0.406250;1.000000;,
  0.437500;0.000000;,
  0.437500;1.000000;,
  0.468750;0.000000;,
  0.468750;1.000000;,
  0.500000;0.000000;,
  0.500000;1.000000;,
  0.531250;0.000000;,
  0.531250;1.000000;,
  0.562500;0.000000;,
  0.562500;1.000000;,
  0.593750;0.000000;,
  0.593750;1.000000;,
  0.625000;0.000000;,
  0.625000;1.000000;,
  0.656250;0.000000;,
  0.656250;1.000000;,
  0.687500;0.000000;,
  0.687500;1.000000;,
  0.718750;0.000000;,
  0.718750;1.000000;,
  0.750000;0.000000;,
  0.750000;1.000000;,
  0.781250;0.000000;,
  0.781250;1.000000;,
  0.812500;0.000000;,
  0.812500;1.000000;,
  0.843750;0.000000;,
  0.843750;1.000000;,
  0.875000;0.000000;,
  0.875000;1.000000;,
  0.906250;0.000000;,
  0.906250;1.000000;,
  0.937500;0.000000;,
  0.937500;1.000000;,
  0.968750;0.000000;,
  0.968750;1.000000;,
  1.000000;0.000000;,
  1.000000;1.000000;,
  0.015625;0.000000;,
  0.046875;0.000000;,
  0.078125;0.000000;,
  0.109375;0.000000;,
  0.140625;0.000000;,
  0.171875;0.000000;,
  0.203125;0.000000;,
  0.234375;0.000000;,
  0.265625;0.000000;,
  0.296875;0.000000;,
  0.328125;0.000000;,
  0.359375;0.000000;,
  0.390625;0.000000;,
  0.421875;0.000000;,
  0.453125;0.000000;,
  0.484375;0.000000;,
  0.515625;0.000000;,
  0.546875;0.000000;,
  0.578125;0.000000;,
  0.609375;0.000000;,
  0.640625;0.000000;,
  0.671875;0.000000;,
  0.703125;0.000000;,
  0.734375;0.000000;,
  0.765625;0.000000;,
  0.796875;0.000000;,
  0.828125;0.000000;,
  0.859375;0.000000;,
  0.890625;0.000000;,
  0.921875;0.000000;,
  0.953125;0.000000;,
  0.984375;0.000000;,
  0.015625;1.000000;,
  0.046875;1.000000;,
  0.078125;1.000000;,
  0.109375;1.000000;,
  0.140625;1.000000;,
  0.171875;1.000000;,
  0.203125;1.000000;,
  0.234375;1.000000;,
  0.265625;1.000000;,
  0.296875;1.000000;,
  0.328125;1.000000;,
  0.359375;1.000000;,
  0.390625;1.000000;,
  0.421875;1.000000;,
  0.453125;1.000000;,
  0.484375;1.000000;,
  0.515625;1.000000;,
  0.546875;1.000000;,
  0.578125;1.000000;,
  0.609375;1.000000;,
  0.640625;1.000000;,
  0.671875;1.000000;,
  0.703125;1.000000;,
  0.734375;1.000000;,
  0.765625;1.000000;,
  0.796875;1.000000;,
  0.828125;1.000000;,
  0.859375;1.000000;,
  0.890625;1.000000;,
  0.921875;1.000000;,
  0.953125;1.000000;,
  0.984375;1.000000;,
  0.000000;0.000000;,
  1.000000;0.000000;,
  1.000000;1.000000;,
  0.000000;1.000000;,
  0.000000;0.000000;,
  1.000000;0.000000;,
  1.000000;1.000000;,
  0.000000;1.000000;,
  0.000000;0.000000;,
  1.000000;0.000000;,
  1.000000;1.000000;,
  0.000000;1.000000;,
  0.000000;0.000000;,
  1.000000;0.000000;,
  1.000000;1.000000;,
  0.000000;1.000000;,
  1.000000;1.000000;,
  0.000000;1.000000;,
  0.000000;0.000000;,
  1.000000;0.000000;;
 }
}
