xof 0302txt 0064
template Header {
 <3D82AB43-62DA-11cf-AB39-0020AF71E433>
 WORD major;
 WORD minor;
 DWORD flags;
}

template Vector {
 <3D82AB5E-62DA-11cf-AB39-0020AF71E433>
 FLOAT x;
 FLOAT y;
 FLOAT z;
}

template Coords2d {
 <F6F23F44-7686-11cf-8F52-0040333594A3>
 FLOAT u;
 FLOAT v;
}

template Matrix4x4 {
 <F6F23F45-7686-11cf-8F52-0040333594A3>
 array FLOAT matrix[16];
}

template ColorRGBA {
 <35FF44E0-6C7C-11cf-8F52-0040333594A3>
 FLOAT red;
 FLOAT green;
 FLOAT blue;
 FLOAT alpha;
}

template ColorRGB {
 <D3E16E81-7835-11cf-8F52-0040333594A3>
 FLOAT red;
 FLOAT green;
 FLOAT blue;
}

template IndexedColor {
 <1630B820-7842-11cf-8F52-0040333594A3>
 DWORD index;
 ColorRGBA indexColor;
}

template Boolean {
 <4885AE61-78E8-11cf-8F52-0040333594A3>
 WORD truefalse;
}

template Boolean2d {
 <4885AE63-78E8-11cf-8F52-0040333594A3>
 Boolean u;
 Boolean v;
}

template MaterialWrap {
 <4885AE60-78E8-11cf-8F52-0040333594A3>
 Boolean u;
 Boolean v;
}

template TextureFilename {
 <A42790E1-7810-11cf-8F52-0040333594A3>
 STRING filename;
}

template Material {
 <3D82AB4D-62DA-11cf-AB39-0020AF71E433>
 ColorRGBA faceColor;
 FLOAT power;
 ColorRGB specularColor;
 ColorRGB emissiveColor;
 [...]
}

template MeshFace {
 <3D82AB5F-62DA-11cf-AB39-0020AF71E433>
 DWORD nFaceVertexIndices;
 array DWORD faceVertexIndices[nFaceVertexIndices];
}

template MeshFaceWraps {
 <4885AE62-78E8-11cf-8F52-0040333594A3>
 DWORD nFaceWrapValues;
 Boolean2d faceWrapValues;
}

template MeshTextureCoords {
 <F6F23F40-7686-11cf-8F52-0040333594A3>
 DWORD nTextureCoords;
 array Coords2d textureCoords[nTextureCoords];
}

template MeshMaterialList {
 <F6F23F42-7686-11cf-8F52-0040333594A3>
 DWORD nMaterials;
 DWORD nFaceIndexes;
 array DWORD faceIndexes[nFaceIndexes];
 [Material]
}

template MeshNormals {
 <F6F23F43-7686-11cf-8F52-0040333594A3>
 DWORD nNormals;
 array Vector normals[nNormals];
 DWORD nFaceNormals;
 array MeshFace faceNormals[nFaceNormals];
}

template MeshVertexColors {
 <1630B821-7842-11cf-8F52-0040333594A3>
 DWORD nVertexColors;
 array IndexedColor vertexColors[nVertexColors];
}

template Mesh {
 <3D82AB44-62DA-11cf-AB39-0020AF71E433>
 DWORD nVertices;
 array Vector vertices[nVertices];
 DWORD nFaces;
 array MeshFace faces[nFaces];
 [...]
}

Header{
1;
0;
1;
}

Mesh {
 1020;
 -0.44500;0.84023;-0.01330;,
 -0.32296;0.84023;-0.01330;,
 -0.32296;0.18023;-0.01330;,
 -0.44500;0.18023;-0.01330;,
 0.32296;0.84023;-0.01330;,
 0.44500;0.84023;-0.01330;,
 0.44500;0.18023;-0.01330;,
 0.32296;0.18023;-0.01330;,
 -0.32296;0.00000;-0.01330;,
 -0.44500;0.00000;-0.01330;,
 0.32296;0.00000;-0.01330;,
 0.44500;0.00000;-0.01330;,
 -0.32296;1.98000;-0.01330;,
 -0.32296;1.76702;-0.01330;,
 -0.44500;1.76702;-0.01330;,
 -0.44500;1.98000;-0.01330;,
 -0.32296;1.00620;-0.01330;,
 -0.44500;1.00620;-0.01330;,
 0.44500;1.98000;-0.01330;,
 0.44513;1.76732;-0.01341;,
 0.32308;1.76732;-0.01341;,
 0.32296;1.98000;-0.01330;,
 0.44513;1.00650;-0.01341;,
 0.32308;1.00650;-0.01341;,
 0.31973;0.83693;-0.02330;,
 -0.31973;0.83693;-0.02330;,
 0.31973;0.18353;-0.02330;,
 -0.31973;0.18353;-0.02330;,
 0.31032;0.82732;-0.01830;,
 -0.31032;0.82732;-0.01830;,
 -0.31032;0.82732;-0.02330;,
 0.31032;0.82732;-0.02330;,
 0.31032;0.19314;-0.01830;,
 0.31032;0.19314;-0.02330;,
 -0.31032;0.19314;-0.01830;,
 -0.31032;0.19314;-0.02330;,
 0.29791;0.81464;-0.01830;,
 -0.29791;0.81464;-0.01830;,
 0.29791;0.20582;-0.01830;,
 -0.29791;0.20582;-0.01830;,
 0.29791;0.81464;-0.01330;,
 -0.29791;0.81464;-0.01330;,
 0.29791;0.20582;-0.01330;,
 -0.29791;0.20582;-0.01330;,
 0.24648;0.76208;-0.01330;,
 -0.24648;0.76208;-0.01330;,
 0.24648;0.25838;-0.01330;,
 -0.24648;0.25838;-0.01330;,
 0.24401;0.75956;-0.01830;,
 -0.24401;0.75956;-0.01830;,
 0.24401;0.26089;-0.01830;,
 -0.24401;0.26089;-0.01830;,
 -0.24401;0.75956;-0.01830;,
 0.24401;0.75956;-0.01830;,
 0.24401;0.26089;-0.01830;,
 -0.24401;0.26089;-0.01830;,
 -0.31664;0.83377;-0.02438;,
 0.31664;0.83377;-0.02438;,
 0.31664;0.18668;-0.02438;,
 -0.31664;0.18668;-0.02438;,
 0.16148;1.83348;-0.01330;,
 0.16148;1.98000;-0.01330;,
 0.00000;1.85779;-0.01330;,
 0.00000;1.98000;-0.01330;,
 -0.16148;1.83348;-0.01330;,
 -0.16148;1.98000;-0.01330;,
 -0.16148;1.00620;-0.01330;,
 0.00000;1.00620;-0.01330;,
 0.16148;1.00620;-0.01330;,
 0.31973;1.76367;-0.02330;,
 0.15986;1.82946;-0.02330;,
 0.31973;1.01046;-0.02330;,
 0.15986;1.01046;-0.02330;,
 0.00000;1.85353;-0.02330;,
 0.00000;1.01046;-0.02330;,
 -0.15986;1.82946;-0.02330;,
 -0.15986;1.01046;-0.02330;,
 -0.31973;1.76367;-0.02330;,
 -0.31973;1.01046;-0.02330;,
 0.31004;1.75362;-0.01830;,
 0.15502;1.81742;-0.01830;,
 0.15502;1.81742;-0.02330;,
 0.31004;1.75362;-0.02330;,
 0.31004;1.02323;-0.01830;,
 0.31004;1.02323;-0.02330;,
 0.15502;1.02323;-0.01830;,
 0.15502;1.02323;-0.02330;,
 0.00000;1.84076;-0.01830;,
 0.00000;1.84076;-0.02330;,
 0.00000;1.02323;-0.01830;,
 0.00000;1.02323;-0.02330;,
 -0.15502;1.81742;-0.01830;,
 -0.15502;1.81742;-0.02330;,
 -0.15502;1.02323;-0.01830;,
 -0.15502;1.02323;-0.02330;,
 -0.31004;1.75362;-0.01830;,
 -0.31004;1.75362;-0.02330;,
 -0.31004;1.02323;-0.01830;,
 -0.31004;1.02323;-0.02330;,
 0.29764;1.74076;-0.01830;,
 0.14882;1.80200;-0.01830;,
 0.15502;1.81742;-0.01830;,
 0.31004;1.75362;-0.01830;,
 0.29764;1.03958;-0.01830;,
 0.31004;1.02323;-0.01830;,
 0.14882;1.03958;-0.01830;,
 0.15502;1.02323;-0.01830;,
 0.00000;1.82441;-0.01830;,
 0.00000;1.84076;-0.01830;,
 0.00000;1.03958;-0.01830;,
 0.00000;1.02323;-0.01830;,
 -0.14882;1.80200;-0.01830;,
 -0.15502;1.81742;-0.01830;,
 -0.14882;1.03958;-0.01830;,
 -0.15502;1.02323;-0.01830;,
 -0.29764;1.74076;-0.01830;,
 -0.31004;1.75362;-0.01830;,
 -0.29764;1.03958;-0.01830;,
 -0.31004;1.02323;-0.01830;,
 0.29764;1.74076;-0.01330;,
 0.14882;1.80200;-0.01330;,
 0.14882;1.80200;-0.01830;,
 0.29764;1.74076;-0.01830;,
 0.29764;1.03958;-0.01330;,
 0.29764;1.03958;-0.01830;,
 0.14882;1.03958;-0.01330;,
 0.14882;1.03958;-0.01830;,
 0.00000;1.82441;-0.01330;,
 0.00000;1.82441;-0.01830;,
 0.00000;1.03958;-0.01330;,
 0.00000;1.03958;-0.01830;,
 -0.14882;1.80200;-0.01330;,
 -0.14882;1.80200;-0.01830;,
 -0.14882;1.03958;-0.01330;,
 -0.14882;1.03958;-0.01830;,
 -0.29764;1.74076;-0.01330;,
 -0.29764;1.74076;-0.01830;,
 -0.29764;1.03958;-0.01330;,
 -0.29764;1.03958;-0.01830;,
 0.24868;1.68997;-0.01330;,
 0.12434;1.74114;-0.01330;,
 0.14882;1.80200;-0.01330;,
 0.29764;1.74076;-0.01330;,
 0.24868;1.10413;-0.01330;,
 0.29764;1.03958;-0.01330;,
 0.12434;1.10413;-0.01330;,
 0.14882;1.03958;-0.01330;,
 0.00000;1.75986;-0.01330;,
 0.00000;1.82441;-0.01330;,
 0.00000;1.10413;-0.01330;,
 0.00000;1.03958;-0.01330;,
 -0.12434;1.74114;-0.01330;,
 -0.14882;1.80200;-0.01330;,
 -0.12434;1.10413;-0.01330;,
 -0.14882;1.03958;-0.01330;,
 -0.24868;1.68997;-0.01330;,
 -0.29764;1.74076;-0.01330;,
 -0.24868;1.10413;-0.01330;,
 -0.29764;1.03958;-0.01330;,
 0.24868;1.68997;-0.02130;,
 0.12434;1.74114;-0.02130;,
 0.12434;1.74114;-0.01330;,
 0.24868;1.68997;-0.01330;,
 0.24868;1.10413;-0.02130;,
 0.24868;1.10413;-0.01330;,
 0.12434;1.10413;-0.02130;,
 0.12434;1.10413;-0.01330;,
 0.00000;1.75986;-0.02130;,
 0.00000;1.75986;-0.01330;,
 0.00000;1.10413;-0.02130;,
 0.00000;1.10413;-0.01330;,
 -0.12434;1.74114;-0.02130;,
 -0.12434;1.74114;-0.01330;,
 -0.12434;1.10413;-0.02130;,
 -0.12434;1.10413;-0.01330;,
 -0.24868;1.68997;-0.02130;,
 -0.24868;1.68997;-0.01330;,
 -0.24868;1.10413;-0.02130;,
 -0.24868;1.10413;-0.01330;,
 0.23405;1.67480;-0.01530;,
 0.11703;1.72296;-0.01530;,
 0.11703;1.72296;-0.02130;,
 0.23405;1.67480;-0.02130;,
 0.11703;1.12341;-0.01530;,
 0.23405;1.12341;-0.01530;,
 0.23405;1.12341;-0.02130;,
 0.11703;1.12341;-0.02130;,
 -0.11703;1.72296;-0.01530;,
 -0.23405;1.67480;-0.01530;,
 -0.23405;1.67480;-0.02130;,
 -0.11703;1.72296;-0.02130;,
 -0.23405;1.12341;-0.01530;,
 -0.11703;1.12341;-0.01530;,
 -0.11703;1.12341;-0.02130;,
 -0.23405;1.12341;-0.02130;,
 0.15825;1.82545;-0.02530;,
 0.31650;1.76032;-0.02530;,
 0.31650;1.01472;-0.02530;,
 0.15825;1.01472;-0.02530;,
 0.00000;1.84928;-0.02530;,
 0.00000;1.01472;-0.02530;,
 -0.15825;1.82545;-0.02530;,
 -0.15825;1.01472;-0.02530;,
 -0.31650;1.76032;-0.02530;,
 -0.31650;1.01472;-0.02530;,
 0.12068;1.73205;-0.02344;,
 0.24137;1.68238;-0.02344;,
 0.24137;1.11377;-0.02344;,
 0.23405;1.12341;-0.02130;,
 0.12068;1.11377;-0.02344;,
 0.11703;1.12341;-0.02130;,
 0.00000;1.74058;-0.02130;,
 0.00000;1.75022;-0.02344;,
 0.00000;1.11377;-0.02344;,
 0.00000;1.12340;-0.02130;,
 -0.12068;1.73205;-0.02344;,
 -0.12068;1.11377;-0.02344;,
 -0.11703;1.12341;-0.02130;,
 -0.24137;1.68238;-0.02344;,
 -0.24137;1.11377;-0.02344;,
 -0.23405;1.12341;-0.02130;,
 0.44500;0.84023;0.01332;,
 0.32296;0.84023;0.01332;,
 0.32296;0.18023;0.01332;,
 0.44500;0.18023;0.01332;,
 -0.32296;0.84023;0.01332;,
 -0.44500;0.84023;0.01332;,
 -0.44500;0.18023;0.01332;,
 -0.32296;0.18023;0.01332;,
 0.32296;0.00000;0.01332;,
 0.44500;0.00000;0.01332;,
 -0.32296;0.00000;0.01332;,
 -0.44500;0.00000;0.01332;,
 0.32296;1.98000;0.01332;,
 0.32296;1.76702;0.01332;,
 0.44500;1.76702;0.01332;,
 0.44500;1.98000;0.01332;,
 0.32296;1.00620;0.01332;,
 0.44500;1.00620;0.01332;,
 -0.44500;1.98000;0.01332;,
 -0.44500;1.76702;0.01332;,
 -0.32296;1.76702;0.01332;,
 -0.32296;1.98000;0.01332;,
 -0.44500;1.00620;0.01332;,
 -0.32296;1.00620;0.01332;,
 -0.31973;0.83693;0.02332;,
 0.31973;0.83693;0.02332;,
 -0.31973;0.18353;0.02332;,
 0.31973;0.18353;0.02332;,
 -0.31032;0.82732;0.01832;,
 0.31032;0.82732;0.01832;,
 0.31032;0.82732;0.02332;,
 -0.31032;0.82732;0.02332;,
 -0.31032;0.19314;0.01832;,
 -0.31032;0.19314;0.02332;,
 0.31032;0.19314;0.01832;,
 0.31032;0.19314;0.02332;,
 -0.29791;0.81464;0.01832;,
 0.29791;0.81464;0.01832;,
 -0.29791;0.20582;0.01832;,
 0.29791;0.20582;0.01832;,
 -0.29791;0.81464;0.01332;,
 0.29791;0.81464;0.01332;,
 -0.29791;0.20582;0.01332;,
 0.29791;0.20582;0.01332;,
 -0.24648;0.76208;0.01332;,
 0.24648;0.76208;0.01332;,
 -0.24648;0.25838;0.01332;,
 0.24648;0.25838;0.01332;,
 -0.24401;0.75956;0.01832;,
 0.24401;0.75956;0.01832;,
 -0.24401;0.26089;0.01832;,
 0.24401;0.26089;0.01832;,
 0.24401;0.75956;0.01832;,
 -0.24401;0.75956;0.01832;,
 -0.24401;0.26089;0.01832;,
 0.24401;0.26089;0.01832;,
 0.31664;0.83377;0.02440;,
 -0.31664;0.83377;0.02440;,
 -0.31664;0.18668;0.02440;,
 0.31664;0.18668;0.02440;,
 -0.16148;1.83348;0.01332;,
 -0.16148;1.98000;0.01332;,
 0.00000;1.85779;0.01332;,
 0.00000;1.98000;0.01332;,
 0.16148;1.83348;0.01332;,
 0.16148;1.98000;0.01332;,
 0.16148;1.00620;0.01332;,
 0.00000;1.00620;0.01332;,
 -0.16148;1.00620;0.01332;,
 -0.31973;1.76367;0.02332;,
 -0.15986;1.82946;0.02332;,
 -0.31973;1.01046;0.02332;,
 -0.15986;1.01046;0.02332;,
 0.00000;1.85353;0.02332;,
 0.00000;1.01046;0.02332;,
 0.15986;1.82946;0.02332;,
 0.15986;1.01046;0.02332;,
 0.31973;1.76367;0.02332;,
 0.31973;1.01046;0.02332;,
 -0.31004;1.75362;0.01832;,
 -0.15502;1.81742;0.01832;,
 -0.15502;1.81742;0.02332;,
 -0.31004;1.75362;0.02332;,
 -0.31004;1.02323;0.01832;,
 -0.31004;1.02323;0.02332;,
 -0.15502;1.02323;0.01832;,
 -0.15502;1.02323;0.02332;,
 0.00000;1.84076;0.01832;,
 0.00000;1.84076;0.02332;,
 0.00000;1.02323;0.01832;,
 0.00000;1.02323;0.02332;,
 0.15502;1.81742;0.01832;,
 0.15502;1.81742;0.02332;,
 0.15502;1.02323;0.01832;,
 0.15502;1.02323;0.02332;,
 0.31004;1.75362;0.01832;,
 0.31004;1.75362;0.02332;,
 0.31004;1.02323;0.01832;,
 0.31004;1.02323;0.02332;,
 -0.29764;1.74076;0.01832;,
 -0.14882;1.80200;0.01832;,
 -0.15502;1.81742;0.01832;,
 -0.31004;1.75362;0.01832;,
 -0.29764;1.03958;0.01832;,
 -0.31004;1.02323;0.01832;,
 -0.14882;1.03958;0.01832;,
 -0.15502;1.02323;0.01832;,
 0.00000;1.82441;0.01832;,
 0.00000;1.84076;0.01832;,
 0.00000;1.03958;0.01832;,
 0.00000;1.02323;0.01832;,
 0.14882;1.80200;0.01832;,
 0.15502;1.81742;0.01832;,
 0.14882;1.03958;0.01832;,
 0.15502;1.02323;0.01832;,
 0.29764;1.74076;0.01832;,
 0.31004;1.75362;0.01832;,
 0.29764;1.03958;0.01832;,
 0.31004;1.02323;0.01832;,
 -0.29764;1.74076;0.01332;,
 -0.14882;1.80200;0.01332;,
 -0.14882;1.80200;0.01832;,
 -0.29764;1.74076;0.01832;,
 -0.29764;1.03958;0.01332;,
 -0.29764;1.03958;0.01832;,
 -0.14882;1.03958;0.01332;,
 -0.14882;1.03958;0.01832;,
 0.00000;1.82441;0.01332;,
 0.00000;1.82441;0.01832;,
 0.00000;1.03958;0.01332;,
 0.00000;1.03958;0.01832;,
 0.14882;1.80200;0.01332;,
 0.14882;1.80200;0.01832;,
 0.14882;1.03958;0.01332;,
 0.14882;1.03958;0.01832;,
 0.29764;1.74076;0.01332;,
 0.29764;1.74076;0.01832;,
 0.29764;1.03958;0.01332;,
 0.29764;1.03958;0.01832;,
 -0.24868;1.68997;0.01332;,
 -0.12434;1.74114;0.01332;,
 -0.14882;1.80200;0.01332;,
 -0.29764;1.74076;0.01332;,
 -0.24868;1.10413;0.01332;,
 -0.29764;1.03958;0.01332;,
 -0.12434;1.10413;0.01332;,
 -0.14882;1.03958;0.01332;,
 0.00000;1.75986;0.01332;,
 0.00000;1.82441;0.01332;,
 0.00000;1.10413;0.01332;,
 0.00000;1.03958;0.01332;,
 0.12434;1.74114;0.01332;,
 0.14882;1.80200;0.01332;,
 0.12434;1.10413;0.01332;,
 0.14882;1.03958;0.01332;,
 0.24868;1.68997;0.01332;,
 0.29764;1.74076;0.01332;,
 0.24868;1.10413;0.01332;,
 0.29764;1.03958;0.01332;,
 -0.24868;1.68997;0.02132;,
 -0.12434;1.74114;0.02132;,
 -0.12434;1.74114;0.01332;,
 -0.24868;1.68997;0.01332;,
 -0.24868;1.10413;0.02132;,
 -0.24868;1.10413;0.01332;,
 -0.12434;1.10413;0.02132;,
 -0.12434;1.10413;0.01332;,
 0.00000;1.75986;0.02132;,
 0.00000;1.75986;0.01332;,
 0.00000;1.10413;0.02132;,
 0.00000;1.10413;0.01332;,
 0.12434;1.74114;0.02132;,
 0.12434;1.74114;0.01332;,
 0.12434;1.10413;0.02132;,
 0.12434;1.10413;0.01332;,
 0.24868;1.68997;0.02132;,
 0.24868;1.68997;0.01332;,
 0.24868;1.10413;0.02132;,
 0.24868;1.10413;0.01332;,
 -0.23405;1.67480;0.01532;,
 -0.11703;1.72296;0.01532;,
 -0.11703;1.72296;0.02132;,
 -0.23405;1.67480;0.02132;,
 -0.11703;1.12341;0.01532;,
 -0.23405;1.12341;0.01532;,
 -0.23405;1.12341;0.02132;,
 -0.11703;1.12341;0.02132;,
 0.11703;1.72296;0.01532;,
 0.23405;1.67480;0.01532;,
 0.23405;1.67480;0.02132;,
 0.11703;1.72296;0.02132;,
 0.23405;1.12341;0.01532;,
 0.11703;1.12341;0.01532;,
 0.11703;1.12341;0.02132;,
 0.23405;1.12341;0.02132;,
 -0.15825;1.82545;0.02532;,
 -0.31650;1.76032;0.02532;,
 -0.31650;1.01472;0.02532;,
 -0.15825;1.01472;0.02532;,
 0.00000;1.84928;0.02532;,
 0.00000;1.01472;0.02532;,
 0.15825;1.82545;0.02532;,
 0.15825;1.01472;0.02532;,
 0.31650;1.76032;0.02532;,
 0.31650;1.01472;0.02532;,
 -0.12068;1.73205;0.02346;,
 -0.24137;1.68238;0.02346;,
 -0.24137;1.11377;0.02346;,
 -0.23405;1.12341;0.02132;,
 -0.12068;1.11377;0.02346;,
 -0.11703;1.12341;0.02132;,
 0.00000;1.74058;0.02132;,
 0.00000;1.75022;0.02346;,
 0.00000;1.11377;0.02346;,
 0.00000;1.12340;0.02132;,
 0.12068;1.73205;0.02346;,
 0.12068;1.11377;0.02346;,
 0.11703;1.12341;0.02132;,
 0.24137;1.68238;0.02346;,
 0.24137;1.11377;0.02346;,
 0.23405;1.12341;0.02132;,
 0.44500;1.98000;-0.01330;,
 0.32296;1.98000;-0.01330;,
 0.32296;1.98000;0.01332;,
 0.44500;1.98000;0.01332;,
 0.16148;1.98000;-0.01330;,
 0.16148;1.98000;0.01332;,
 0.00000;1.98000;-0.01330;,
 0.00000;1.98000;0.01332;,
 -0.16148;1.98000;-0.01330;,
 -0.16148;1.98000;0.01332;,
 -0.32296;1.98000;-0.01330;,
 -0.32296;1.98000;0.01332;,
 -0.44500;1.98000;-0.01330;,
 -0.44500;1.98000;0.01332;,
 -0.44500;1.76702;-0.01330;,
 -0.44500;1.76702;0.01332;,
 -0.44500;1.00620;-0.01330;,
 -0.44500;1.00620;0.01332;,
 -0.44500;0.84023;-0.01330;,
 -0.44500;0.84023;0.01332;,
 -0.44500;0.18023;-0.01330;,
 -0.44500;0.18023;0.01332;,
 -0.44500;0.00000;-0.01330;,
 -0.44500;0.00000;0.01332;,
 0.44500;0.00000;-0.01330;,
 0.44500;0.18023;-0.01330;,
 0.44500;0.18023;0.01332;,
 0.44500;0.00000;0.01332;,
 0.44500;0.84023;-0.01330;,
 0.44500;0.84023;0.01332;,
 0.44513;1.00650;-0.01341;,
 0.44500;1.00620;0.01332;,
 0.44513;1.76732;-0.01341;,
 0.44500;1.76702;0.01332;,
 -0.32296;0.00000;-0.01330;,
 -0.32296;0.00000;0.01332;,
 0.32296;0.00000;-0.01330;,
 0.32296;0.00000;0.01332;,
 -0.23405;1.67480;-0.01530;,
 -0.11703;1.72296;-0.01530;,
 -0.11703;1.72296;0.01532;,
 -0.23405;1.67480;0.01532;,
 0.11703;1.72296;-0.01530;,
 0.23405;1.67480;-0.01530;,
 0.23405;1.67480;0.01532;,
 0.11703;1.72296;0.01532;,
 -0.23410;1.27945;-0.01042;,
 -0.23405;1.67480;-0.02130;,
 -0.23405;1.67480;-0.01530;,
 -0.23410;1.51891;-0.01042;,
 -0.23410;1.29820;-0.01042;,
 -0.23410;1.51891;0.01043;,
 -0.23405;1.67480;0.01532;,
 -0.23405;1.67480;0.02132;,
 -0.23410;1.27945;0.01043;,
 -0.23410;1.29820;0.01043;,
 -0.23410;1.49985;0.01043;,
 -0.23410;1.49985;0.01043;,
 -0.23410;1.29820;0.01043;,
 -0.23410;1.29820;-0.01042;,
 -0.23410;1.49985;-0.01042;,
 0.23405;1.27945;0.01043;,
 0.23405;1.27945;-0.01042;,
 0.23405;1.29820;0.01043;,
 0.23405;1.49985;0.01043;,
 0.23405;1.49985;-0.01042;,
 0.23405;1.29820;-0.01042;,
 0.23405;1.51891;0.01043;,
 0.23405;1.67480;0.01532;,
 0.23405;1.67480;-0.01530;,
 0.23405;1.51891;-0.01042;,
 -0.23410;1.49985;-0.01042;,
 -0.23410;1.27945;0.01043;,
 -0.00948;1.27945;0.01043;,
 -0.00948;1.29820;0.01043;,
 -0.23410;1.29820;0.01043;,
 0.00944;1.27945;0.01043;,
 0.00944;1.29820;0.01043;,
 0.23405;1.27945;0.01043;,
 0.23405;1.29820;0.01043;,
 -0.00948;1.29820;-0.01042;,
 -0.23410;1.29820;-0.01042;,
 0.23405;1.29820;-0.01042;,
 0.00944;1.29820;-0.01042;,
 -0.00948;1.27945;-0.01042;,
 -0.23410;1.27945;-0.01042;,
 0.00944;1.27945;-0.01042;,
 0.23405;1.27945;-0.01042;,
 -0.23410;1.49985;0.01043;,
 -0.00948;1.49990;0.01043;,
 -0.00948;1.51891;0.01043;,
 -0.23410;1.51891;0.01043;,
 0.00944;1.49990;0.01043;,
 0.00944;1.51891;0.01043;,
 0.23405;1.49985;0.01043;,
 0.23405;1.51891;0.01043;,
 -0.00948;1.51891;-0.01042;,
 -0.23410;1.51891;-0.01042;,
 0.23405;1.51891;-0.01042;,
 0.00944;1.51891;-0.01042;,
 -0.00948;1.49990;-0.01042;,
 -0.23410;1.49985;-0.01042;,
 0.00944;1.49990;-0.01042;,
 0.23405;1.49985;-0.01042;,
 0.00944;1.73906;-0.01042;,
 0.00944;1.73906;0.01043;,
 -0.00948;1.73906;0.01043;,
 -0.00948;1.73906;-0.01042;,
 -0.00948;1.73906;-0.01042;,
 -0.00002;1.74051;-0.01042;,
 0.00000;1.74058;-0.02130;,
 0.00944;1.73906;0.01043;,
 -0.11703;1.72296;-0.01530;,
 -0.00948;1.73906;-0.01042;,
 -0.00948;1.73906;0.01043;,
 -0.11703;1.72296;0.01532;,
 0.00944;1.73906;-0.01042;,
 0.00944;1.73906;0.01043;,
 -0.00002;1.74051;0.01043;,
 0.00944;1.12340;0.01043;,
 0.00944;1.12340;-0.01042;,
 -0.00948;1.12340;-0.01042;,
 -0.00948;1.12340;0.01043;,
 0.00944;1.12340;-0.01042;,
 0.00000;1.12340;-0.02130;,
 -0.00948;1.12340;0.01043;,
 0.00000;1.12340;0.02132;,
 0.00944;1.12340;0.01043;,
 -0.00948;1.12340;-0.01042;,
 -0.00002;1.12340;-0.01042;,
 -0.00002;1.12340;0.01043;,
 0.00000;1.12340;-0.02130;,
 0.00000;1.12340;0.02132;,
 0.11703;1.12341;0.02132;,
 0.00000;1.12340;0.02132;,
 -0.00948;1.73906;0.01043;,
 0.00944;1.73906;-0.01042;,
 0.00000;1.74058;0.02132;,
 0.23405;1.23369;0.02132;,
 0.23405;1.56452;0.02132;,
 0.23405;1.45424;0.02132;,
 0.23405;1.34397;0.02132;,
 0.23405;1.56452;-0.02130;,
 0.23405;1.23369;-0.02130;,
 0.23405;1.45424;-0.02130;,
 0.23405;1.34397;-0.02130;,
 -0.24378;1.75940;-0.00102;,
 0.24378;1.75940;-0.00102;,
 0.24378;1.07838;-0.00102;,
 -0.24378;1.07838;-0.00102;,
 0.24378;1.75940;-0.00102;,
 0.24378;1.75940;0.00102;,
 0.24378;1.07838;0.00102;,
 0.24378;1.07838;-0.00102;,
 0.24378;1.75940;0.00102;,
 -0.24378;1.75940;0.00102;,
 -0.24378;1.07838;0.00102;,
 0.24378;1.07838;0.00102;,
 -0.24378;1.75940;0.00102;,
 -0.24378;1.75940;-0.00102;,
 -0.24378;1.07838;-0.00102;,
 -0.24378;1.07838;0.00102;,
 0.24378;1.75940;-0.00102;,
 -0.24378;1.75940;-0.00102;,
 -0.24378;1.07838;-0.00102;,
 0.24378;1.07838;-0.00102;,
 -0.38801;0.96801;-0.01347;,
 -0.36249;0.95744;-0.01347;,
 -0.37019;0.94974;-0.03095;,
 -0.38801;0.95712;-0.03095;,
 -0.35192;0.93191;-0.01347;,
 -0.36281;0.93191;-0.03095;,
 -0.36249;0.90639;-0.01347;,
 -0.37019;0.91409;-0.03095;,
 -0.38801;0.89582;-0.01347;,
 -0.38801;0.90671;-0.03095;,
 -0.41353;0.90639;-0.01347;,
 -0.40583;0.91409;-0.03095;,
 -0.42410;0.93191;-0.01347;,
 -0.41322;0.93191;-0.03095;,
 -0.41353;0.95744;-0.01347;,
 -0.40583;0.94974;-0.03095;,
 -0.38801;0.96801;-0.01347;,
 -0.38801;0.95712;-0.03095;,
 -0.38801;0.93191;-0.01347;,
 -0.38801;0.93191;-0.01347;,
 -0.38801;0.93191;-0.01347;,
 -0.38801;0.93191;-0.01347;,
 -0.38801;0.93191;-0.01347;,
 -0.38801;0.93191;-0.01347;,
 -0.38801;0.93191;-0.01347;,
 -0.38801;0.93191;-0.01347;,
 -0.37681;0.94312;-0.03095;,
 -0.38801;0.94776;-0.03095;,
 -0.37216;0.93191;-0.03095;,
 -0.37681;0.92071;-0.03095;,
 -0.38801;0.91607;-0.03095;,
 -0.39922;0.92071;-0.03095;,
 -0.40386;0.93191;-0.03095;,
 -0.39922;0.94312;-0.03095;,
 -0.38801;0.94776;-0.03095;,
 -0.37681;0.94312;-0.05351;,
 -0.38801;0.94776;-0.05351;,
 -0.38801;0.93191;-0.05351;,
 -0.37216;0.93191;-0.05351;,
 -0.38801;0.93191;-0.05351;,
 -0.37681;0.92071;-0.05351;,
 -0.38801;0.93191;-0.05351;,
 -0.38801;0.91607;-0.05351;,
 -0.38801;0.93191;-0.05351;,
 -0.39922;0.92071;-0.05351;,
 -0.38801;0.93191;-0.05351;,
 -0.40386;0.93191;-0.05351;,
 -0.38801;0.93191;-0.05351;,
 -0.39922;0.94312;-0.05351;,
 -0.38801;0.93191;-0.05351;,
 -0.38801;0.94776;-0.05351;,
 -0.38801;0.93191;-0.05351;,
 -0.22351;0.92497;-0.06073;,
 -0.23013;0.92112;-0.06105;,
 -0.23120;0.92478;-0.06434;,
 -0.22387;0.92828;-0.06349;,
 -0.23157;0.92588;-0.06434;,
 -0.23284;0.92953;-0.06104;,
 -0.22534;0.93114;-0.06074;,
 -0.24667;0.91690;-0.06510;,
 -0.25083;0.92278;-0.06512;,
 -0.24468;0.91368;-0.06131;,
 -0.25842;0.92167;-0.06526;,
 -0.25384;0.91436;-0.06521;,
 -0.25301;0.92600;-0.06134;,
 -0.25185;0.91114;-0.06140;,
 -0.26060;0.92489;-0.06151;,
 -0.27682;0.90968;-0.06615;,
 -0.27718;0.91907;-0.06605;,
 -0.27676;0.90584;-0.06240;,
 -0.28482;0.91871;-0.06654;,
 -0.28441;0.90867;-0.06665;,
 -0.27743;0.92291;-0.06223;,
 -0.28434;0.90484;-0.06291;,
 -0.28508;0.92254;-0.06272;,
 -0.30167;0.90770;-0.06814;,
 -0.30092;0.91904;-0.06790;,
 -0.30851;0.91989;-0.06870;,
 -0.30933;0.90777;-0.06895;,
 -0.30077;0.92287;-0.06405;,
 -0.30202;0.90387;-0.06445;,
 -0.30967;0.90394;-0.06520;,
 -0.30836;0.92372;-0.06485;,
 -0.32436;0.90885;-0.07041;,
 -0.32340;0.92294;-0.07063;,
 -0.32472;0.90502;-0.06647;,
 -0.33034;0.92586;-0.07094;,
 -0.33183;0.91032;-0.07074;,
 -0.32323;0.92676;-0.06680;,
 -0.33219;0.90649;-0.06681;,
 -0.33017;0.92969;-0.06711;,
 -0.34337;0.91414;-0.07117;,
 -0.34208;0.93377;-0.07134;,
 -0.34379;0.91032;-0.06725;,
 -0.34825;0.93832;-0.07147;,
 -0.35084;0.91566;-0.07135;,
 -0.34185;0.93759;-0.06748;,
 -0.35126;0.91184;-0.06743;,
 -0.34802;0.94214;-0.06759;,
 -0.36058;0.91648;-0.07148;,
 -0.35790;0.94597;-0.07153;,
 -0.36110;0.91267;-0.06756;,
 -0.36465;0.94919;-0.07152;,
 -0.36814;0.91593;-0.07052;,
 -0.35758;0.94979;-0.06763;,
 -0.36866;0.91211;-0.06669;,
 -0.36432;0.95301;-0.06761;,
 -0.38418;0.91206;-0.07092;,
 -0.37726;0.95193;-0.07075;,
 -0.38490;0.90828;-0.06710;,
 -0.38482;0.95231;-0.07094;,
 -0.39166;0.91199;-0.07111;,
 -0.37673;0.95572;-0.06689;,
 -0.39239;0.90820;-0.06729;,
 -0.38429;0.95610;-0.06708;,
 -0.40360;0.91456;-0.07141;,
 -0.39375;0.95141;-0.07116;,
 -0.40471;0.91086;-0.06760;,
 -0.40038;0.94837;-0.07133;,
 -0.40969;0.91841;-0.07157;,
 -0.39283;0.95511;-0.06730;,
 -0.41080;0.91471;-0.06776;,
 -0.39946;0.95207;-0.06747;,
 -0.41319;0.92253;-0.07166;,
 -0.41113;0.93794;-0.07160;,
 -0.41389;0.91874;-0.06784;,
 -0.41405;0.93533;-0.06784;,
 -0.41562;0.92557;-0.06788;,
 -0.41062;0.94173;-0.06775;,
 -0.22527;0.93114;-0.05688;,
 -0.23277;0.92953;-0.05635;,
 -0.23142;0.92533;-0.05303;,
 -0.22435;0.92864;-0.05410;,
 -0.23006;0.92112;-0.05635;,
 -0.22343;0.92497;-0.05688;,
 -0.25295;0.92600;-0.05599;,
 -0.25086;0.92278;-0.05215;,
 -0.25388;0.91436;-0.05215;,
 -0.24671;0.91690;-0.05215;,
 -0.25846;0.92167;-0.05215;,
 -0.24462;0.91368;-0.05599;,
 -0.26055;0.92489;-0.05599;,
 -0.25180;0.91114;-0.05599;,
 -0.27722;0.91907;-0.05215;,
 -0.27687;0.90968;-0.05215;,
 -0.27738;0.92291;-0.05599;,
 -0.28446;0.90867;-0.05215;,
 -0.28487;0.91871;-0.05215;,
 -0.27671;0.90584;-0.05599;,
 -0.28503;0.92254;-0.05599;,
 -0.28430;0.90484;-0.05599;,
 -0.30173;0.90770;-0.05215;,
 -0.30097;0.91904;-0.05215;,
 -0.30197;0.90387;-0.05599;,
 -0.30072;0.92287;-0.05599;,
 -0.30939;0.90777;-0.05215;,
 -0.30857;0.91989;-0.05215;,
 -0.30963;0.90394;-0.05599;,
 -0.30832;0.92372;-0.05599;,
 -0.32347;0.92294;-0.05215;,
 -0.32442;0.90885;-0.05215;,
 -0.32320;0.92676;-0.05599;,
 -0.33189;0.91032;-0.05215;,
 -0.33040;0.92586;-0.05215;,
 -0.32468;0.90502;-0.05599;,
 -0.33014;0.92969;-0.05599;,
 -0.33216;0.90649;-0.05599;,
 -0.34215;0.93377;-0.05215;,
 -0.34344;0.91414;-0.05215;,
 -0.34182;0.93759;-0.05599;,
 -0.35091;0.91566;-0.05215;,
 -0.34832;0.93832;-0.05215;,
 -0.34376;0.91032;-0.05599;,
 -0.34800;0.94214;-0.05599;,
 -0.35123;0.91184;-0.05599;,
 -0.35798;0.94597;-0.05215;,
 -0.36066;0.91648;-0.05215;,
 -0.35755;0.94979;-0.05599;,
 -0.36822;0.91593;-0.05215;,
 -0.36472;0.94919;-0.05215;,
 -0.36108;0.91267;-0.05599;,
 -0.36430;0.95301;-0.05599;,
 -0.36864;0.91211;-0.05599;,
 -0.37734;0.95193;-0.05215;,
 -0.38426;0.91206;-0.05215;,
 -0.37671;0.95572;-0.05599;,
 -0.39175;0.91199;-0.05215;,
 -0.38490;0.95231;-0.05215;,
 -0.38489;0.90828;-0.05599;,
 -0.38427;0.95610;-0.05599;,
 -0.39238;0.90820;-0.05599;,
 -0.39384;0.95141;-0.05215;,
 -0.40368;0.91456;-0.05215;,
 -0.39282;0.95511;-0.05599;,
 -0.40978;0.91841;-0.05215;,
 -0.40047;0.94837;-0.05215;,
 -0.40470;0.91086;-0.05599;,
 -0.39945;0.95207;-0.05599;,
 -0.41079;0.91471;-0.05599;,
 -0.41123;0.93794;-0.05215;,
 -0.41328;0.92253;-0.05215;,
 -0.41061;0.94173;-0.05599;,
 -0.41562;0.92557;-0.05599;,
 -0.41404;0.93533;-0.05599;,
 -0.41389;0.91874;-0.05599;,
 -0.21641;0.93385;-0.06016;,
 -0.38801;0.95712;0.03095;,
 -0.37019;0.94974;0.03095;,
 -0.36249;0.95744;0.01347;,
 -0.38801;0.96801;0.01347;,
 -0.36281;0.93191;0.03095;,
 -0.35192;0.93191;0.01347;,
 -0.37019;0.91409;0.03095;,
 -0.36249;0.90639;0.01347;,
 -0.38801;0.90671;0.03095;,
 -0.38801;0.89582;0.01347;,
 -0.40583;0.91409;0.03095;,
 -0.41353;0.90639;0.01347;,
 -0.41322;0.93191;0.03095;,
 -0.42410;0.93191;0.01347;,
 -0.40583;0.94974;0.03095;,
 -0.41353;0.95744;0.01347;,
 -0.38801;0.95712;0.03095;,
 -0.38801;0.96801;0.01347;,
 -0.38801;0.93191;0.01347;,
 -0.38801;0.93191;0.01347;,
 -0.38801;0.93191;0.01347;,
 -0.38801;0.93191;0.01347;,
 -0.38801;0.93191;0.01347;,
 -0.38801;0.93191;0.01347;,
 -0.38801;0.93191;0.01347;,
 -0.38801;0.93191;0.01347;,
 -0.38801;0.94776;0.03095;,
 -0.37681;0.94312;0.03095;,
 -0.37216;0.93191;0.03095;,
 -0.37681;0.92071;0.03095;,
 -0.38801;0.91607;0.03095;,
 -0.39922;0.92071;0.03095;,
 -0.40386;0.93191;0.03095;,
 -0.39922;0.94312;0.03095;,
 -0.38801;0.94776;0.03095;,
 -0.38801;0.94776;0.05351;,
 -0.37681;0.94312;0.05351;,
 -0.38801;0.93191;0.05351;,
 -0.37216;0.93191;0.05351;,
 -0.38801;0.93191;0.05351;,
 -0.37681;0.92071;0.05351;,
 -0.38801;0.93191;0.05351;,
 -0.38801;0.91607;0.05351;,
 -0.38801;0.93191;0.05351;,
 -0.39922;0.92071;0.05351;,
 -0.38801;0.93191;0.05351;,
 -0.40386;0.93191;0.05351;,
 -0.38801;0.93191;0.05351;,
 -0.39922;0.94312;0.05351;,
 -0.38801;0.93191;0.05351;,
 -0.38801;0.94776;0.05351;,
 -0.38801;0.93191;0.05351;,
 -0.22387;0.92828;0.06349;,
 -0.23120;0.92478;0.06434;,
 -0.23013;0.92112;0.06105;,
 -0.22351;0.92497;0.06073;,
 -0.22534;0.93114;0.06074;,
 -0.23284;0.92953;0.06104;,
 -0.23157;0.92588;0.06434;,
 -0.25083;0.92278;0.06512;,
 -0.24667;0.91690;0.06510;,
 -0.24468;0.91368;0.06131;,
 -0.25384;0.91436;0.06521;,
 -0.25842;0.92167;0.06526;,
 -0.25301;0.92600;0.06134;,
 -0.25185;0.91114;0.06140;,
 -0.26060;0.92489;0.06151;,
 -0.27718;0.91907;0.06605;,
 -0.27682;0.90968;0.06615;,
 -0.27676;0.90584;0.06240;,
 -0.28441;0.90867;0.06665;,
 -0.28482;0.91871;0.06654;,
 -0.27743;0.92291;0.06223;,
 -0.28434;0.90484;0.06291;,
 -0.28508;0.92254;0.06272;,
 -0.30092;0.91904;0.06790;,
 -0.30167;0.90770;0.06814;,
 -0.30933;0.90777;0.06895;,
 -0.30851;0.91989;0.06870;,
 -0.30077;0.92287;0.06405;,
 -0.30202;0.90387;0.06445;,
 -0.30967;0.90394;0.06520;,
 -0.30836;0.92372;0.06485;,
 -0.32340;0.92294;0.07063;,
 -0.32436;0.90885;0.07041;,
 -0.32472;0.90502;0.06647;,
 -0.33183;0.91032;0.07074;,
 -0.33034;0.92586;0.07094;,
 -0.32323;0.92676;0.06680;,
 -0.33219;0.90649;0.06681;,
 -0.33017;0.92969;0.06711;,
 -0.34208;0.93377;0.07134;,
 -0.34337;0.91414;0.07117;,
 -0.34379;0.91032;0.06725;,
 -0.35084;0.91566;0.07135;,
 -0.34825;0.93832;0.07147;,
 -0.34185;0.93759;0.06748;,
 -0.35126;0.91184;0.06743;,
 -0.34802;0.94214;0.06759;,
 -0.35790;0.94597;0.07153;,
 -0.36058;0.91648;0.07148;,
 -0.36110;0.91267;0.06756;,
 -0.36814;0.91593;0.07052;,
 -0.36465;0.94919;0.07152;,
 -0.35758;0.94979;0.06763;,
 -0.36866;0.91211;0.06669;,
 -0.36432;0.95301;0.06761;,
 -0.37726;0.95193;0.07075;,
 -0.38418;0.91206;0.07092;,
 -0.38490;0.90828;0.06710;,
 -0.39166;0.91199;0.07111;,
 -0.38482;0.95231;0.07094;,
 -0.37673;0.95572;0.06689;,
 -0.39239;0.90820;0.06729;,
 -0.38429;0.95610;0.06708;,
 -0.39375;0.95141;0.07116;,
 -0.40360;0.91456;0.07141;,
 -0.40471;0.91086;0.06760;,
 -0.40969;0.91841;0.07157;,
 -0.40038;0.94837;0.07133;,
 -0.39283;0.95511;0.06730;,
 -0.41080;0.91471;0.06776;,
 -0.39946;0.95207;0.06747;,
 -0.41113;0.93794;0.07160;,
 -0.41319;0.92253;0.07166;,
 -0.41389;0.91874;0.06784;,
 -0.41562;0.92557;0.06788;,
 -0.41405;0.93533;0.06784;,
 -0.41062;0.94173;0.06775;,
 -0.22435;0.92864;0.05410;,
 -0.23142;0.92533;0.05303;,
 -0.23277;0.92953;0.05635;,
 -0.22527;0.93114;0.05688;,
 -0.22343;0.92497;0.05688;,
 -0.23006;0.92112;0.05635;,
 -0.25086;0.92278;0.05215;,
 -0.25295;0.92600;0.05599;,
 -0.25846;0.92167;0.05215;,
 -0.24671;0.91690;0.05215;,
 -0.25388;0.91436;0.05215;,
 -0.24462;0.91368;0.05599;,
 -0.26055;0.92489;0.05599;,
 -0.25180;0.91114;0.05599;,
 -0.27687;0.90968;0.05215;,
 -0.27722;0.91907;0.05215;,
 -0.27738;0.92291;0.05599;,
 -0.28487;0.91871;0.05215;,
 -0.28446;0.90867;0.05215;,
 -0.27671;0.90584;0.05599;,
 -0.28503;0.92254;0.05599;,
 -0.28430;0.90484;0.05599;,
 -0.30097;0.91904;0.05215;,
 -0.30173;0.90770;0.05215;,
 -0.30197;0.90387;0.05599;,
 -0.30072;0.92287;0.05599;,
 -0.30857;0.91989;0.05215;,
 -0.30939;0.90777;0.05215;,
 -0.30963;0.90394;0.05599;,
 -0.30832;0.92372;0.05599;,
 -0.32442;0.90885;0.05215;,
 -0.32347;0.92294;0.05215;,
 -0.32320;0.92676;0.05599;,
 -0.33040;0.92586;0.05215;,
 -0.33189;0.91032;0.05215;,
 -0.32468;0.90502;0.05599;,
 -0.33014;0.92969;0.05599;,
 -0.33216;0.90649;0.05599;,
 -0.34344;0.91414;0.05215;,
 -0.34215;0.93377;0.05215;,
 -0.34182;0.93759;0.05599;,
 -0.34832;0.93832;0.05215;,
 -0.35091;0.91566;0.05215;,
 -0.34376;0.91032;0.05599;,
 -0.34800;0.94214;0.05599;,
 -0.35123;0.91184;0.05599;,
 -0.36066;0.91648;0.05215;,
 -0.35798;0.94597;0.05215;,
 -0.35755;0.94979;0.05599;,
 -0.36472;0.94919;0.05215;,
 -0.36822;0.91593;0.05215;,
 -0.36108;0.91267;0.05599;,
 -0.36430;0.95301;0.05599;,
 -0.36864;0.91211;0.05599;,
 -0.38426;0.91206;0.05215;,
 -0.37734;0.95193;0.05215;,
 -0.37671;0.95572;0.05599;,
 -0.38490;0.95231;0.05215;,
 -0.39175;0.91199;0.05215;,
 -0.38489;0.90828;0.05599;,
 -0.38427;0.95610;0.05599;,
 -0.39238;0.90820;0.05599;,
 -0.40368;0.91456;0.05215;,
 -0.39384;0.95141;0.05215;,
 -0.39282;0.95511;0.05599;,
 -0.40047;0.94837;0.05215;,
 -0.40978;0.91841;0.05215;,
 -0.40470;0.91086;0.05599;,
 -0.39945;0.95207;0.05599;,
 -0.41079;0.91471;0.05599;,
 -0.41328;0.92253;0.05215;,
 -0.41123;0.93794;0.05215;,
 -0.41061;0.94173;0.05599;,
 -0.41404;0.93533;0.05599;,
 -0.41562;0.92557;0.05599;,
 -0.41389;0.91874;0.05599;,
 -0.21641;0.93385;0.06016;;
 
 827;
 4;0,1,2,3;,
 4;4,5,6,7;,
 4;3,2,8,9;,
 4;2,7,10,8;,
 4;7,6,11,10;,
 4;12,13,14,15;,
 4;13,16,17,14;,
 4;16,1,0,17;,
 4;18,19,20,21;,
 4;19,22,23,20;,
 4;22,5,4,23;,
 4;24,25,1,4;,
 4;26,24,4,7;,
 4;27,26,7,2;,
 4;25,27,2,1;,
 4;28,29,30,31;,
 4;32,28,31,33;,
 4;34,32,33,35;,
 4;29,34,35,30;,
 4;36,37,29,28;,
 4;38,36,28,32;,
 4;39,38,32,34;,
 4;37,39,34,29;,
 4;40,41,37,36;,
 4;42,40,36,38;,
 4;43,42,38,39;,
 4;41,43,39,37;,
 4;44,45,41,40;,
 4;46,44,40,42;,
 4;47,46,42,43;,
 4;45,47,43,41;,
 4;48,49,45,44;,
 4;50,48,44,46;,
 4;51,50,46,47;,
 4;49,51,47,45;,
 4;52,53,54,55;,
 4;30,56,57,31;,
 4;56,25,24,57;,
 4;31,57,58,33;,
 4;57,24,26,58;,
 4;33,58,59,35;,
 4;58,26,27,59;,
 4;35,59,56,30;,
 4;59,27,25,56;,
 4;20,60,61,21;,
 4;60,62,63,61;,
 4;62,64,65,63;,
 4;64,13,12,65;,
 3;16,66,1;,
 3;66,67,1;,
 3;4,68,23;,
 3;67,68,4;,
 3;67,4,1;,
 4;69,70,60,20;,
 4;71,69,20,23;,
 4;72,71,23,68;,
 4;70,73,62,60;,
 4;74,72,68,67;,
 4;73,75,64,62;,
 4;76,74,67,66;,
 4;75,77,13,64;,
 4;78,76,66,16;,
 4;77,78,16,13;,
 4;79,80,81,82;,
 4;83,79,82,84;,
 4;85,83,84,86;,
 4;80,87,88,81;,
 4;89,85,86,90;,
 4;87,91,92,88;,
 4;93,89,90,94;,
 4;91,95,96,92;,
 4;97,93,94,98;,
 4;95,97,98,96;,
 4;99,100,101,102;,
 4;103,99,102,104;,
 4;105,103,104,106;,
 4;100,107,108,101;,
 4;109,105,106,110;,
 4;107,111,112,108;,
 4;113,109,110,114;,
 4;111,115,116,112;,
 4;117,113,114,118;,
 4;115,117,118,116;,
 4;119,120,121,122;,
 4;123,119,122,124;,
 4;125,123,124,126;,
 4;120,127,128,121;,
 4;129,125,126,130;,
 4;127,131,132,128;,
 4;133,129,130,134;,
 4;131,135,136,132;,
 4;137,133,134,138;,
 4;135,137,138,136;,
 4;139,140,141,142;,
 4;143,139,142,144;,
 4;145,143,144,146;,
 4;140,147,148,141;,
 4;149,145,146,150;,
 4;147,151,152,148;,
 4;153,149,150,154;,
 4;151,155,156,152;,
 4;157,153,154,158;,
 4;155,157,158,156;,
 4;159,160,161,162;,
 4;163,159,162,164;,
 4;165,163,164,166;,
 4;160,167,168,161;,
 4;169,165,166,170;,
 4;167,171,172,168;,
 4;173,169,170,174;,
 4;171,175,176,172;,
 4;177,173,174,178;,
 4;175,177,178,176;,
 4;179,180,181,182;,
 4;183,184,185,186;,
 4;187,188,189,190;,
 4;191,192,193,194;,
 4;81,195,196,82;,
 4;195,70,69,196;,
 4;82,196,197,84;,
 4;196,69,71,197;,
 4;84,197,198,86;,
 4;197,71,72,198;,
 4;88,199,195,81;,
 4;199,73,70,195;,
 4;86,198,200,90;,
 4;198,72,74,200;,
 4;92,201,199,88;,
 4;201,75,73,199;,
 4;90,200,202,94;,
 4;200,74,76,202;,
 4;96,203,201,92;,
 4;203,77,75,201;,
 4;94,202,204,98;,
 4;202,76,78,204;,
 4;98,204,203,96;,
 4;204,78,77,203;,
 4;181,205,206,182;,
 4;205,160,159,206;,
 4;206,159,163,207;,
 4;208,207,209,210;,
 4;207,163,165,209;,
 4;211,212,205,181;,
 4;212,167,160,205;,
 4;210,209,213,214;,
 4;209,165,169,213;,
 4;190,215,212,211;,
 4;215,171,167,212;,
 4;214,213,216,217;,
 4;213,169,173,216;,
 4;189,218,215,190;,
 4;218,175,171,215;,
 4;217,216,219,220;,
 4;216,173,177,219;,
 4;220,219,218,189;,
 4;219,177,175,218;,
 4;221,222,223,224;,
 4;225,226,227,228;,
 4;224,223,229,230;,
 4;223,228,231,229;,
 4;228,227,232,231;,
 4;233,234,235,236;,
 4;234,237,238,235;,
 4;237,222,221,238;,
 4;239,240,241,242;,
 4;240,243,244,241;,
 4;243,226,225,244;,
 4;245,246,222,225;,
 4;247,245,225,228;,
 4;248,247,228,223;,
 4;246,248,223,222;,
 4;249,250,251,252;,
 4;253,249,252,254;,
 4;255,253,254,256;,
 4;250,255,256,251;,
 4;257,258,250,249;,
 4;259,257,249,253;,
 4;260,259,253,255;,
 4;258,260,255,250;,
 4;261,262,258,257;,
 4;263,261,257,259;,
 4;264,263,259,260;,
 4;262,264,260,258;,
 4;265,266,262,261;,
 4;267,265,261,263;,
 4;268,267,263,264;,
 4;266,268,264,262;,
 4;269,270,266,265;,
 4;271,269,265,267;,
 4;272,271,267,268;,
 4;270,272,268,266;,
 4;273,274,275,276;,
 4;251,277,278,252;,
 4;277,246,245,278;,
 4;252,278,279,254;,
 4;278,245,247,279;,
 4;254,279,280,256;,
 4;279,247,248,280;,
 4;256,280,277,251;,
 4;280,248,246,277;,
 4;241,281,282,242;,
 4;281,283,284,282;,
 4;283,285,286,284;,
 4;285,234,233,286;,
 3;237,287,222;,
 3;287,288,222;,
 3;225,289,244;,
 3;288,289,225;,
 3;288,225,222;,
 4;290,291,281,241;,
 4;292,290,241,244;,
 4;293,292,244,289;,
 4;291,294,283,281;,
 4;295,293,289,288;,
 4;294,296,285,283;,
 4;297,295,288,287;,
 4;296,298,234,285;,
 4;299,297,287,237;,
 4;298,299,237,234;,
 4;300,301,302,303;,
 4;304,300,303,305;,
 4;306,304,305,307;,
 4;301,308,309,302;,
 4;310,306,307,311;,
 4;308,312,313,309;,
 4;314,310,311,315;,
 4;312,316,317,313;,
 4;318,314,315,319;,
 4;316,318,319,317;,
 4;320,321,322,323;,
 4;324,320,323,325;,
 4;326,324,325,327;,
 4;321,328,329,322;,
 4;330,326,327,331;,
 4;328,332,333,329;,
 4;334,330,331,335;,
 4;332,336,337,333;,
 4;338,334,335,339;,
 4;336,338,339,337;,
 4;340,341,342,343;,
 4;344,340,343,345;,
 4;346,344,345,347;,
 4;341,348,349,342;,
 4;350,346,347,351;,
 4;348,352,353,349;,
 4;354,350,351,355;,
 4;352,356,357,353;,
 4;358,354,355,359;,
 4;356,358,359,357;,
 4;360,361,362,363;,
 4;364,360,363,365;,
 4;366,364,365,367;,
 4;361,368,369,362;,
 4;370,366,367,371;,
 4;368,372,373,369;,
 4;374,370,371,375;,
 4;372,376,377,373;,
 4;378,374,375,379;,
 4;376,378,379,377;,
 4;380,381,382,383;,
 4;384,380,383,385;,
 4;386,384,385,387;,
 4;381,388,389,382;,
 4;390,386,387,391;,
 4;388,392,393,389;,
 4;394,390,391,395;,
 4;392,396,397,393;,
 4;398,394,395,399;,
 4;396,398,399,397;,
 4;400,401,402,403;,
 4;404,405,406,407;,
 4;408,409,410,411;,
 4;412,413,414,415;,
 4;302,416,417,303;,
 4;416,291,290,417;,
 4;303,417,418,305;,
 4;417,290,292,418;,
 4;305,418,419,307;,
 4;418,292,293,419;,
 4;309,420,416,302;,
 4;420,294,291,416;,
 4;307,419,421,311;,
 4;419,293,295,421;,
 4;313,422,420,309;,
 4;422,296,294,420;,
 4;311,421,423,315;,
 4;421,295,297,423;,
 4;317,424,422,313;,
 4;424,298,296,422;,
 4;315,423,425,319;,
 4;423,297,299,425;,
 4;319,425,424,317;,
 4;425,299,298,424;,
 4;402,426,427,403;,
 4;426,381,380,427;,
 4;403,427,428,429;,
 4;427,380,384,428;,
 4;429,428,430,431;,
 4;428,384,386,430;,
 4;432,433,426,402;,
 4;433,388,381,426;,
 4;431,430,434,435;,
 4;430,386,390,434;,
 4;411,436,433,432;,
 4;436,392,388,433;,
 4;435,434,437,438;,
 4;434,390,394,437;,
 4;410,439,436,411;,
 4;439,396,392,436;,
 4;438,437,440,441;,
 4;437,394,398,440;,
 4;440,398,396,439;,
 4;442,443,444,445;,
 4;443,446,447,444;,
 4;446,448,449,447;,
 4;448,450,451,449;,
 4;450,452,453,451;,
 4;452,454,455,453;,
 4;454,456,457,455;,
 4;456,458,459,457;,
 4;458,460,461,459;,
 4;460,462,463,461;,
 4;462,464,465,463;,
 4;466,467,468,469;,
 4;467,470,471,468;,
 4;470,472,473,471;,
 4;472,474,475,473;,
 4;474,442,445,475;,
 4;465,464,476,477;,
 4;477,476,478,479;,
 4;479,478,466,469;,
 4;184,183,413,412;,
 4;192,191,405,404;,
 4;480,481,482,483;,
 4;484,485,486,487;,
 4;488,191,194,489;,
 3;490,491,489;,
 3;492,488,489;,
 4;493,494,495,406;,
 3;405,496,406;,
 3;496,497,406;,
 3;497,498,406;,
 3;498,493,406;,
 4;494,493,491,490;,
 4;499,500,501,502;,
 4;496,405,191,488;,
 4;412,503,504,184;,
 4;505,506,507,508;,
 4;509,510,511,512;,
 3;492,489,491;,
 3;492,491,513;,
 4;514,515,516,517;,
 4;515,518,519,516;,
 4;518,520,521,519;,
 4;517,516,522,523;,
 4;519,521,524,525;,
 4;523,522,526,527;,
 4;522,525,528,526;,
 4;525,524,529,528;,
 4;527,526,515,514;,
 4;528,529,520,518;,
 4;530,531,532,533;,
 4;531,534,535,532;,
 4;534,536,537,535;,
 4;533,532,538,539;,
 4;535,537,540,541;,
 4;539,538,542,543;,
 4;538,541,544,542;,
 4;541,540,545,544;,
 4;543,542,531,530;,
 4;544,545,536,534;,
 4;534,531,516,519;,
 4;544,534,519,525;,
 4;542,544,525,522;,
 4;531,542,522,516;,
 4;546,547,535,541;,
 4;548,549,538,532;,
 4;550,187,190,211;,
 3;551,549,552;,
 4;553,408,411,432;,
 4;554,555,556,557;,
 4;558,484,487,559;,
 4;560,548,532,535;,
 3;547,560,535;,
 4;551,546,541,538;,
 3;549,551,538;,
 3;546,551,552;,
 4;561,562,528,518;,
 4;563,564,515,526;,
 4;565,183,186,566;,
 4;567,404,407,568;,
 4;183,565,569,413;,
 4;570,192,404,567;,
 3;562,571,528;,
 4;572,561,518,515;,
 3;564,572,515;,
 3;518,572,561;,
 3;572,518,515;,
 4;562,573,563,571;,
 3;571,563,526;,
 3;571,526,528;,
 4;413,569,574,575;,
 4;564,576,561,572;,
 4;566,193,192,570;,
 4;401,577,432,402;,
 4;180,578,211,181;,
 4;548,560,547,579;,
 4;580,441,440,439;,
 3;410,581,439;,
 3;581,582,439;,
 4;581,410,510,509;,
 4;581,509,506,582;,
 4;505,583,582,506;,
 4;505,503,580,583;,
 4;412,441,580,503;,
 4;582,583,580,439;,
 4;584,182,206,207;,
 3;208,585,207;,
 3;586,584,207;,
 4;512,584,586,507;,
 4;584,512,511,182;,
 4;587,508,507,586;,
 4;587,585,504,508;,
 4;208,184,504,585;,
 4;585,587,586,207;,
 4;588,589,590,591;,
 4;592,593,594,595;,
 4;596,597,598,599;,
 4;600,601,602,603;,
 4;600,593,604,605;,
 4;606,607,594,603;,
 4;608,609,610,611;,
 4;609,612,613,610;,
 4;612,614,615,613;,
 4;614,616,617,615;,
 4;616,618,619,617;,
 4;618,620,621,619;,
 4;620,622,623,621;,
 4;622,624,625,623;,
 3;626,609,608;,
 3;627,612,609;,
 3;628,614,612;,
 3;629,616,614;,
 3;630,618,616;,
 3;631,620,618;,
 3;632,622,620;,
 3;633,624,622;,
 4;634,635,611,610;,
 4;636,634,610,613;,
 4;637,636,613,615;,
 4;638,637,615,617;,
 4;639,638,617,619;,
 4;640,639,619,621;,
 4;641,640,621,623;,
 4;642,641,623,625;,
 4;643,644,635,634;,
 3;645,644,643;,
 4;646,643,634,636;,
 3;647,643,646;,
 4;648,646,636,637;,
 3;649,646,648;,
 4;650,648,637,638;,
 3;651,648,650;,
 4;652,650,638,639;,
 3;653,650,652;,
 4;654,652,639,640;,
 3;655,652,654;,
 4;656,654,640,641;,
 3;657,654,656;,
 4;658,656,641,642;,
 3;659,656,658;,
 4;660,661,662,663;,
 4;664,665,666,663;,
 4;664,662,667,668;,
 4;669,667,662,661;,
 4;670,668,667,671;,
 4;665,664,668,672;,
 4;669,673,671,667;,
 4;670,674,672,668;,
 4;671,675,676,670;,
 4;677,675,671,673;,
 4;678,676,675,679;,
 4;674,670,676,680;,
 4;677,681,679,675;,
 4;678,682,680,676;,
 4;683,684,678,679;,
 4;685,684,683,686;,
 4;682,678,684,687;,
 4;688,683,679,681;,
 4;688,689,686,683;,
 4;685,690,687,684;,
 4;686,691,692,685;,
 4;693,691,686,689;,
 4;694,692,691,695;,
 4;690,685,692,696;,
 4;693,697,695,691;,
 4;694,698,696,692;,
 4;695,699,700,694;,
 4;701,699,695,697;,
 4;702,700,699,703;,
 4;698,694,700,704;,
 4;701,705,703,699;,
 4;702,706,704,700;,
 4;703,707,708,702;,
 4;709,707,703,705;,
 4;710,708,707,711;,
 4;706,702,708,712;,
 4;709,713,711,707;,
 4;710,714,712,708;,
 4;711,715,716,710;,
 4;717,715,711,713;,
 4;718,716,715,719;,
 4;714,710,716,720;,
 4;717,721,719,715;,
 4;718,722,720,716;,
 4;719,723,724,718;,
 4;725,723,719,721;,
 4;726,724,723,727;,
 4;722,718,724,728;,
 4;725,729,727,723;,
 4;726,730,728,724;,
 4;727,731,732,726;,
 4;733,731,727,729;,
 4;734,732,731,735;,
 4;730,726,732,736;,
 3;733,735,731;,
 3;734,736,732;,
 4;737,738,739,740;,
 4;739,741,742,740;,
 4;743,744,739,738;,
 4;745,746,744,747;,
 4;741,739,746,748;,
 4;743,749,747,744;,
 4;745,750,748,746;,
 4;745,747,751,752;,
 4;753,751,747,749;,
 4;754,752,751,755;,
 4;750,745,752,756;,
 4;753,757,755,751;,
 4;754,758,756,752;,
 4;759,754,755,760;,
 4;758,754,759,761;,
 4;762,760,755,757;,
 4;763,759,760,764;,
 4;763,765,761,759;,
 4;762,766,764,760;,
 4;763,764,767,768;,
 4;769,767,764,766;,
 4;770,768,767,771;,
 4;765,763,768,772;,
 4;769,773,771,767;,
 4;770,774,772,768;,
 4;770,771,775,776;,
 4;777,775,771,773;,
 4;778,776,775,779;,
 4;774,770,776,780;,
 4;777,781,779,775;,
 4;778,782,780,776;,
 4;778,779,783,784;,
 4;785,783,779,781;,
 4;786,784,783,787;,
 4;782,778,784,788;,
 4;785,789,787,783;,
 4;786,790,788,784;,
 4;786,787,791,792;,
 4;793,791,787,789;,
 4;794,792,791,795;,
 4;790,786,792,796;,
 4;793,797,795,791;,
 4;794,798,796,792;,
 4;794,795,799,800;,
 4;801,799,795,797;,
 4;802,800,799,803;,
 4;798,794,800,804;,
 4;801,805,803,799;,
 4;802,806,804,800;,
 4;802,803,807,808;,
 4;809,807,803,805;,
 4;810,808,807,811;,
 4;806,802,808,812;,
 3;809,811,807;,
 3;810,812,808;,
 4;717,713,790,796;,
 4;788,790,713,709;,
 4;721,717,796,798;,
 4;661,660,742,741;,
 4;738,737,666,665;,
 4;669,661,741,748;,
 4;673,669,748,750;,
 4;665,672,743,738;,
 4;749,743,672,674;,
 4;677,673,750,756;,
 4;681,677,756,758;,
 4;674,680,753,749;,
 4;757,753,680,682;,
 4;682,687,762,757;,
 4;766,762,687,690;,
 4;688,681,758,761;,
 4;689,688,761,765;,
 4;693,689,765,772;,
 4;697,693,772,774;,
 4;690,696,769,766;,
 4;773,769,696,698;,
 4;701,697,774,780;,
 4;705,701,780,782;,
 4;698,704,777,773;,
 4;781,777,704,706;,
 4;709,705,782,788;,
 4;706,712,785,781;,
 4;789,785,712,714;,
 4;714,720,793,789;,
 4;797,793,720,722;,
 4;725,721,798,804;,
 4;729,725,804,806;,
 4;722,728,801,797;,
 4;805,801,728,730;,
 4;733,729,806,812;,
 4;735,733,812,810;,
 4;734,735,810,811;,
 4;736,734,811,809;,
 4;730,736,809,805;,
 3;663,662,664;,
 3;739,744,746;,
 3;813,660,663;,
 3;813,742,660;,
 3;813,663,666;,
 3;813,666,737;,
 3;813,737,740;,
 3;813,740,742;,
 4;814,815,816,817;,
 4;815,818,819,816;,
 4;818,820,821,819;,
 4;820,822,823,821;,
 4;822,824,825,823;,
 4;824,826,827,825;,
 4;826,828,829,827;,
 4;828,830,831,829;,
 3;817,816,832;,
 3;816,819,833;,
 3;819,821,834;,
 3;821,823,835;,
 3;823,825,836;,
 3;825,827,837;,
 3;827,829,838;,
 3;829,831,839;,
 4;815,814,840,841;,
 4;818,815,841,842;,
 4;820,818,842,843;,
 4;822,820,843,844;,
 4;824,822,844,845;,
 4;826,824,845,846;,
 4;828,826,846,847;,
 4;830,828,847,848;,
 4;841,840,849,850;,
 3;850,849,851;,
 4;842,841,850,852;,
 3;852,850,853;,
 4;843,842,852,854;,
 3;854,852,855;,
 4;844,843,854,856;,
 3;856,854,857;,
 4;845,844,856,858;,
 3;858,856,859;,
 4;846,845,858,860;,
 3;860,858,861;,
 4;847,846,860,862;,
 3;862,860,863;,
 4;848,847,862,864;,
 3;864,862,865;,
 4;866,867,868,869;,
 4;866,870,871,872;,
 4;873,874,867,872;,
 4;868,867,874,875;,
 4;876,874,873,877;,
 4;878,873,872,871;,
 4;874,876,879,875;,
 4;873,878,880,877;,
 4;877,881,882,876;,
 4;879,876,882,883;,
 4;884,882,881,885;,
 4;886,881,877,880;,
 4;882,884,887,883;,
 4;881,886,888,885;,
 4;884,885,889,890;,
 4;891,890,889,892;,
 4;893,889,885,888;,
 4;887,884,890,894;,
 4;890,891,895,894;,
 4;889,893,896,892;,
 4;892,897,898,891;,
 4;895,891,898,899;,
 4;900,898,897,901;,
 4;902,897,892,896;,
 4;898,900,903,899;,
 4;897,902,904,901;,
 4;901,905,906,900;,
 4;903,900,906,907;,
 4;908,906,905,909;,
 4;910,905,901,904;,
 4;906,908,911,907;,
 4;905,910,912,909;,
 4;909,913,914,908;,
 4;911,908,914,915;,
 4;916,914,913,917;,
 4;918,913,909,912;,
 4;914,916,919,915;,
 4;913,918,920,917;,
 4;917,921,922,916;,
 4;919,916,922,923;,
 4;924,922,921,925;,
 4;926,921,917,920;,
 4;922,924,927,923;,
 4;921,926,928,925;,
 4;925,929,930,924;,
 4;927,924,930,931;,
 4;932,930,929,933;,
 4;934,929,925,928;,
 4;930,932,935,931;,
 4;929,934,936,933;,
 4;933,937,938,932;,
 4;935,932,938,939;,
 4;940,938,937,941;,
 4;942,937,933,936;,
 3;938,940,939;,
 3;937,942,941;,
 4;943,944,945,946;,
 4;943,947,948,944;,
 4;945,944,949,950;,
 4;951,949,952,953;,
 4;954,952,944,948;,
 4;949,951,955,950;,
 4;952,954,956,953;,
 4;957,958,951,953;,
 4;955,951,958,959;,
 4;960,958,957,961;,
 4;962,957,953,956;,
 4;958,960,963,959;,
 4;957,962,964,961;,
 4;965,960,961,966;,
 4;967,966,961,964;,
 4;963,960,965,968;,
 4;969,965,966,970;,
 4;966,967,971,970;,
 4;965,969,972,968;,
 4;973,974,969,970;,
 4;972,969,974,975;,
 4;976,974,973,977;,
 4;978,973,970,971;,
 4;974,976,979,975;,
 4;973,978,980,977;,
 4;981,982,976,977;,
 4;979,976,982,983;,
 4;984,982,981,985;,
 4;986,981,977,980;,
 4;982,984,987,983;,
 4;981,986,988,985;,
 4;989,990,984,985;,
 4;987,984,990,991;,
 4;992,990,989,993;,
 4;994,989,985,988;,
 4;990,992,995,991;,
 4;989,994,996,993;,
 4;997,998,992,993;,
 4;995,992,998,999;,
 4;1000,998,997,1001;,
 4;1002,997,993,996;,
 4;998,1000,1003,999;,
 4;997,1002,1004,1001;,
 4;1005,1006,1000,1001;,
 4;1003,1000,1006,1007;,
 4;1008,1006,1005,1009;,
 4;1010,1005,1001,1004;,
 4;1006,1008,1011,1007;,
 4;1005,1010,1012,1009;,
 4;1013,1014,1008,1009;,
 4;1011,1008,1014,1015;,
 4;1016,1014,1013,1017;,
 4;1018,1013,1009,1012;,
 3;1014,1016,1015;,
 3;1013,1018,1017;,
 4;1002,996,919,923;,
 4;915,919,996,994;,
 4;1004,1002,923,927;,
 4;948,947,869,868;,
 4;871,870,946,945;,
 4;954,948,868,875;,
 4;956,954,875,879;,
 4;945,950,878,871;,
 4;880,878,950,955;,
 4;962,956,879,883;,
 4;964,962,883,887;,
 4;955,959,886,880;,
 4;888,886,959,963;,
 4;963,968,893,888;,
 4;896,893,968,972;,
 4;967,964,887,894;,
 4;971,967,894,895;,
 4;978,971,895,899;,
 4;980,978,899,903;,
 4;972,975,902,896;,
 4;904,902,975,979;,
 4;986,980,903,907;,
 4;988,986,907,911;,
 4;979,983,910,904;,
 4;912,910,983,987;,
 4;994,988,911,915;,
 4;987,991,918,912;,
 4;920,918,991,995;,
 4;995,999,926,920;,
 4;928,926,999,1003;,
 4;1010,1004,927,931;,
 4;1012,1010,931,935;,
 4;1003,1007,934,928;,
 4;936,934,1007,1011;,
 4;1018,1012,935,939;,
 4;1017,1018,939,940;,
 4;1016,1017,940,941;,
 4;1015,1016,941,942;,
 4;1011,1015,942,936;,
 3;872,867,866;,
 3;952,949,944;,
 3;866,869,1019;,
 3;869,947,1019;,
 3;870,866,1019;,
 3;946,870,1019;,
 3;943,946,1019;,
 3;947,943,1019;;
 
 MeshMaterialList {
  3;
  827;
  0,
  0,
  0,
  0,
  0,
  0,
  0,
  0,
  0,
  0,
  0,
  0,
  0,
  0,
  0,
  0,
  0,
  0,
  0,
  0,
  0,
  0,
  0,
  0,
  0,
  0,
  0,
  0,
  0,
  0,
  0,
  0,
  0,
  0,
  0,
  0,
  0,
  0,
  0,
  0,
  0,
  0,
  0,
  0,
  0,
  0,
  0,
  0,
  0,
  0,
  0,
  0,
  0,
  0,
  0,
  0,
  0,
  0,
  0,
  0,
  0,
  0,
  0,
  0,
  0,
  0,
  0,
  0,
  0,
  0,
  0,
  0,
  0,
  0,
  0,
  0,
  0,
  0,
  0,
  0,
  0,
  0,
  0,
  0,
  0,
  0,
  0,
  0,
  0,
  0,
  0,
  0,
  0,
  0,
  0,
  0,
  0,
  0,
  0,
  0,
  0,
  0,
  0,
  0,
  0,
  0,
  0,
  0,
  0,
  0,
  0,
  0,
  0,
  0,
  0,
  0,
  0,
  0,
  0,
  0,
  0,
  0,
  0,
  0,
  0,
  0,
  0,
  0,
  0,
  0,
  0,
  0,
  0,
  0,
  0,
  0,
  0,
  0,
  0,
  0,
  0,
  0,
  0,
  0,
  0,
  0,
  0,
  0,
  0,
  0,
  0,
  0,
  0,
  0,
  0,
  0,
  0,
  0,
  0,
  0,
  0,
  0,
  0,
  0,
  0,
  0,
  0,
  0,
  0,
  0,
  0,
  0,
  0,
  0,
  0,
  0,
  0,
  0,
  0,
  0,
  0,
  0,
  0,
  0,
  0,
  0,
  0,
  0,
  0,
  0,
  0,
  0,
  0,
  0,
  0,
  0,
  0,
  0,
  0,
  0,
  0,
  0,
  0,
  0,
  0,
  0,
  0,
  0,
  0,
  0,
  0,
  0,
  0,
  0,
  0,
  0,
  0,
  0,
  0,
  0,
  0,
  0,
  0,
  0,
  0,
  0,
  0,
  0,
  0,
  0,
  0,
  0,
  0,
  0,
  0,
  0,
  0,
  0,
  0,
  0,
  0,
  0,
  0,
  0,
  0,
  0,
  0,
  0,
  0,
  0,
  0,
  0,
  0,
  0,
  0,
  0,
  0,
  0,
  0,
  0,
  0,
  0,
  0,
  0,
  0,
  0,
  0,
  0,
  0,
  0,
  0,
  0,
  0,
  0,
  0,
  0,
  0,
  0,
  0,
  0,
  0,
  0,
  0,
  0,
  0,
  0,
  0,
  0,
  0,
  0,
  0,
  0,
  0,
  0,
  0,
  0,
  0,
  0,
  0,
  0,
  0,
  0,
  0,
  0,
  0,
  0,
  0,
  0,
  0,
  0,
  0,
  0,
  0,
  0,
  0,
  0,
  0,
  0,
  0,
  0,
  0,
  0,
  0,
  0,
  0,
  0,
  0,
  0,
  0,
  0,
  0,
  0,
  0,
  0,
  0,
  0,
  0,
  0,
  0,
  0,
  0,
  0,
  0,
  0,
  0,
  0,
  0,
  0,
  0,
  0,
  0,
  0,
  0,
  0,
  0,
  0,
  0,
  0,
  0,
  0,
  0,
  0,
  0,
  0,
  0,
  0,
  0,
  0,
  0,
  0,
  0,
  0,
  0,
  0,
  0,
  0,
  0,
  0,
  0,
  0,
  0,
  0,
  0,
  0,
  0,
  0,
  0,
  0,
  0,
  0,
  0,
  0,
  0,
  0,
  0,
  0,
  0,
  0,
  0,
  0,
  0,
  0,
  0,
  0,
  0,
  0,
  0,
  0,
  0,
  0,
  0,
  0,
  0,
  0,
  0,
  0,
  0,
  0,
  0,
  0,
  0,
  0,
  0,
  0,
  0,
  1,
  1,
  1,
  1,
  1,
  1,
  2,
  2,
  2,
  2,
  2,
  2,
  2,
  2,
  2,
  2,
  2,
  2,
  2,
  2,
  2,
  2,
  2,
  2,
  2,
  2,
  2,
  2,
  2,
  2,
  2,
  2,
  2,
  2,
  2,
  2,
  2,
  2,
  2,
  2,
  2,
  2,
  2,
  2,
  2,
  2,
  2,
  2,
  2,
  2,
  2,
  2,
  2,
  2,
  2,
  2,
  2,
  2,
  2,
  2,
  2,
  2,
  2,
  2,
  2,
  2,
  2,
  2,
  2,
  2,
  2,
  2,
  2,
  2,
  2,
  2,
  2,
  2,
  2,
  2,
  2,
  2,
  2,
  2,
  2,
  2,
  2,
  2,
  2,
  2,
  2,
  2,
  2,
  2,
  2,
  2,
  2,
  2,
  2,
  2,
  2,
  2,
  2,
  2,
  2,
  2,
  2,
  2,
  2,
  2,
  2,
  2,
  2,
  2,
  2,
  2,
  2,
  2,
  2,
  2,
  2,
  2,
  2,
  2,
  2,
  2,
  2,
  2,
  2,
  2,
  2,
  2,
  2,
  2,
  2,
  2,
  2,
  2,
  2,
  2,
  2,
  2,
  2,
  2,
  2,
  2,
  2,
  2,
  2,
  2,
  2,
  2,
  2,
  2,
  2,
  2,
  2,
  2,
  2,
  2,
  2,
  2,
  2,
  2,
  2,
  2,
  2,
  2,
  2,
  2,
  2,
  2,
  2,
  2,
  2,
  2,
  2,
  2,
  2,
  2,
  2,
  2,
  2,
  2,
  2,
  2,
  2,
  2,
  2,
  2,
  2,
  2,
  2,
  2,
  2,
  2,
  2,
  2,
  2,
  2,
  2,
  2,
  2,
  2,
  2,
  2,
  2,
  2,
  2,
  2,
  2,
  2,
  2,
  2,
  2,
  2,
  2,
  2,
  2,
  2,
  2,
  2,
  2,
  2,
  2,
  2,
  2,
  2,
  2,
  2,
  2,
  2,
  2,
  2,
  2,
  2,
  2,
  2,
  2,
  2,
  2,
  2,
  2,
  2,
  2,
  2,
  2,
  2,
  2,
  2,
  2,
  2,
  2,
  2,
  2,
  2,
  2,
  2,
  2,
  2,
  2,
  2,
  2,
  2,
  2,
  2,
  2,
  2,
  2,
  2,
  2,
  2,
  2,
  2,
  2,
  2,
  2,
  2,
  2,
  2,
  2,
  2,
  2,
  2,
  2,
  2,
  2,
  2,
  2,
  2,
  2,
  2,
  2,
  2,
  2,
  2,
  2,
  2,
  2,
  2,
  2,
  2,
  2,
  2,
  2,
  2,
  2,
  2,
  2,
  2,
  2,
  2,
  2,
  2,
  2,
  2,
  2,
  2,
  2,
  2,
  2,
  2,
  2,
  2,
  2,
  2,
  2,
  2,
  2,
  2,
  2,
  2,
  2,
  2,
  2,
  2,
  2,
  2,
  2,
  2,
  2,
  2,
  2,
  2,
  2,
  2,
  2,
  2,
  2,
  2,
  2,
  2,
  2,
  2,
  2,
  2,
  2,
  2,
  2,
  2,
  2,
  2,
  2,
  2,
  2,
  2,
  2,
  2,
  2,
  2,
  2,
  2,
  2,
  2,
  2,
  2,
  2,
  2,
  2,
  2,
  2,
  2,
  2,
  2,
  2,
  2,
  2,
  2,
  2,
  2,
  2,
  2,
  2,
  2,
  2,
  2,
  2,
  2,
  2,
  2,
  2,
  2;;
  Material {
   0.752800;0.527200;0.313600;1.000000;;
   5.000000;
   0.000000;0.000000;0.000000;;
   0.000000;0.000000;0.000000;;
   TextureFilename {
    "data/texture/wood2.png";
   }
  }
  Material {
   0.800000;0.800000;0.800000;0.500000;;
   5.000000;
   0.000000;0.000000;0.000000;;
   0.000000;0.000000;0.000000;;
  }
  Material {
   0.620800;0.602400;0.279200;1.000000;;
   5.000000;
   0.300000;0.300000;0.300000;;
   0.000000;0.000000;0.000000;;
  }
 }
 MeshTextureCoords {
  1020;
  0.001240;1.496710;,
  0.157290;1.496710;,
  0.157290;2.340640;,
  0.001240;2.340640;,
  0.983200;1.496710;,
  1.139250;1.496710;,
  1.139250;2.340640;,
  0.983200;2.340640;,
  0.157290;2.571090;,
  0.001240;2.571090;,
  0.983200;2.571090;,
  1.139250;2.571090;,
  0.157290;0.039320;,
  0.157290;0.311640;,
  0.001240;0.311640;,
  0.001240;0.039320;,
  0.157290;1.284490;,
  0.001240;1.284490;,
  1.139250;0.039320;,
  1.139250;0.311640;,
  0.983200;0.311640;,
  0.983200;0.039320;,
  1.139250;1.284490;,
  0.983200;1.284490;,
  0.979070;1.500930;,
  0.161420;1.500930;,
  0.979070;2.336420;,
  0.161420;2.336420;,
  0.967050;1.513220;,
  0.173440;1.513220;,
  0.173440;1.513220;,
  0.967050;1.513220;,
  0.967050;2.324130;,
  0.967050;2.324130;,
  0.173440;2.324130;,
  0.173440;2.324130;,
  0.951180;1.529440;,
  0.189310;1.529440;,
  0.951180;2.307910;,
  0.189310;2.307910;,
  0.951180;1.529440;,
  0.189310;1.529440;,
  0.951180;2.307910;,
  0.189310;2.307910;,
  0.885410;1.596640;,
  0.255080;1.596640;,
  0.885410;2.240710;,
  0.255080;2.240710;,
  0.882260;1.599860;,
  0.258230;1.599860;,
  0.882260;2.237490;,
  0.258230;2.237490;,
  0.222190;1.367010;,
  0.846220;1.367010;,
  0.846220;2.004650;,
  0.222190;2.004650;,
  0.165360;1.504970;,
  0.975120;1.504970;,
  0.975120;2.332390;,
  0.165360;2.332390;,
  0.776720;0.226670;,
  0.776720;0.039320;,
  0.570240;0.195580;,
  0.570240;0.039320;,
  0.363770;0.226670;,
  0.363770;0.039320;,
  0.363770;1.284490;,
  0.570240;1.284490;,
  0.776720;1.284490;,
  0.979070;0.315930;,
  0.774660;0.231800;,
  0.979070;1.279050;,
  0.774660;1.279050;,
  0.570240;0.201030;,
  0.570240;1.279050;,
  0.365830;0.231800;,
  0.365830;1.279050;,
  0.161420;0.315930;,
  0.161420;1.279050;,
  0.966680;0.328780;,
  0.768460;0.247210;,
  0.768460;0.247210;,
  0.966680;0.328780;,
  0.966680;1.262710;,
  0.966680;1.262710;,
  0.768460;1.262710;,
  0.768460;1.262710;,
  0.570240;0.217360;,
  0.570240;0.217360;,
  0.570240;1.262710;,
  0.570240;1.262710;,
  0.372030;0.247210;,
  0.372030;0.247210;,
  0.372030;1.262710;,
  0.372030;1.262710;,
  0.173810;0.328780;,
  0.173810;0.328780;,
  0.173810;1.262710;,
  0.173810;1.262710;,
  1.211200;0.766450;,
  0.906730;0.641150;,
  0.919420;0.609610;,
  1.236570;0.740130;,
  1.211200;2.200970;,
  1.236570;2.234420;,
  0.906730;2.200970;,
  0.919420;2.234420;,
  0.602270;0.595310;,
  0.602270;0.561860;,
  0.602270;2.200970;,
  0.602270;2.234420;,
  0.297800;0.641150;,
  0.285120;0.609610;,
  0.297800;2.200970;,
  0.285120;2.234420;,
  -0.006660;0.766450;,
  -0.032030;0.740130;,
  -0.006660;2.200970;,
  -0.032030;2.234420;,
  0.950830;0.345230;,
  0.760540;0.266920;,
  0.760540;0.266920;,
  0.950830;0.345230;,
  0.950830;1.241800;,
  0.950830;1.241800;,
  0.760540;1.241800;,
  0.760540;1.241800;,
  0.570240;0.238270;,
  0.570240;0.238270;,
  0.570240;1.241800;,
  0.570240;1.241800;,
  0.379950;0.266920;,
  0.379950;0.266920;,
  0.379950;1.241800;,
  0.379950;1.241800;,
  0.189660;0.345230;,
  0.189660;0.345230;,
  0.189660;1.241800;,
  0.189660;1.241800;,
  0.981300;1.080920;,
  0.726910;0.976220;,
  0.776990;0.851720;,
  1.081460;0.977020;,
  0.981300;2.279490;,
  1.081460;2.411530;,
  0.726910;2.279490;,
  0.776990;2.411530;,
  0.472530;0.937920;,
  0.472530;0.805880;,
  0.472530;2.279490;,
  0.472530;2.411530;,
  0.218140;0.976220;,
  0.168060;0.851720;,
  0.218140;2.279490;,
  0.168060;2.411530;,
  -0.036250;1.080920;,
  -0.136400;0.977020;,
  -0.036250;2.279490;,
  -0.136400;2.411530;,
  0.888230;0.410170;,
  0.729240;0.344740;,
  0.729240;0.344740;,
  0.888230;0.410170;,
  0.888230;1.159270;,
  0.888230;1.159270;,
  0.729240;1.159270;,
  0.729240;1.159270;,
  0.570240;0.320800;,
  0.570240;0.320800;,
  0.570240;1.159270;,
  0.570240;1.159270;,
  0.411250;0.344740;,
  0.411250;0.344740;,
  0.411250;1.159270;,
  0.411250;1.159270;,
  0.252260;0.410170;,
  0.252260;0.410170;,
  0.252260;1.159270;,
  0.252260;1.159270;,
  0.869520;0.429570;,
  0.719880;0.367990;,
  0.719880;0.367990;,
  0.869520;0.429570;,
  0.610900;0.961860;,
  0.760540;0.961860;,
  0.760540;0.961860;,
  0.610900;0.961860;,
  0.420610;0.367990;,
  0.270970;0.429570;,
  0.270970;0.429570;,
  0.420610;0.367990;,
  0.161980;0.961860;,
  0.311620;0.961860;,
  0.311620;0.961860;,
  0.161980;0.961860;,
  0.772590;0.236940;,
  0.974940;0.320210;,
  0.974940;1.273600;,
  0.772590;1.273600;,
  0.570240;0.206470;,
  0.570240;1.273600;,
  0.367900;0.236940;,
  0.367900;1.273600;,
  0.165550;0.320210;,
  0.165550;1.273600;,
  0.724560;0.356360;,
  0.878880;0.419870;,
  0.878880;1.146940;,
  0.869520;1.134610;,
  0.724560;1.146940;,
  0.719880;1.134610;,
  0.570240;0.345460;,
  0.570240;0.333130;,
  0.570240;1.146940;,
  0.570240;1.134610;,
  0.415930;0.356360;,
  0.415930;1.146940;,
  0.420610;1.134610;,
  0.261610;0.419870;,
  0.261610;1.146940;,
  0.270970;1.134610;,
  0.001240;1.496710;,
  0.157290;1.496710;,
  0.157290;2.340640;,
  0.001240;2.340640;,
  0.983200;1.496710;,
  1.139250;1.496710;,
  1.139250;2.340640;,
  0.983200;2.340640;,
  0.157290;2.571090;,
  0.001240;2.571090;,
  0.983200;2.571090;,
  1.139250;2.571090;,
  0.157290;0.039320;,
  0.157290;0.311640;,
  0.001240;0.311640;,
  0.001240;0.039320;,
  0.157290;1.284490;,
  0.001240;1.284490;,
  1.139250;0.039320;,
  1.139250;0.311640;,
  0.983200;0.311640;,
  0.983200;0.039320;,
  1.139250;1.284490;,
  0.983200;1.284490;,
  0.979070;1.500930;,
  0.161420;1.500930;,
  0.979070;2.336420;,
  0.161420;2.336420;,
  0.967050;1.513220;,
  0.173440;1.513220;,
  0.173440;1.513220;,
  0.967050;1.513220;,
  0.967050;2.324130;,
  0.967050;2.324130;,
  0.173440;2.324130;,
  0.173440;2.324130;,
  0.951180;1.529440;,
  0.189310;1.529440;,
  0.951180;2.307910;,
  0.189310;2.307910;,
  0.951180;1.529440;,
  0.189310;1.529440;,
  0.951180;2.307910;,
  0.189310;2.307910;,
  0.885410;1.596640;,
  0.255080;1.596640;,
  0.885410;2.240710;,
  0.255080;2.240710;,
  0.882260;1.599860;,
  0.258230;1.599860;,
  0.882260;2.237490;,
  0.258230;2.237490;,
  0.222190;1.367010;,
  0.846220;1.367010;,
  0.846220;2.004650;,
  0.222190;2.004650;,
  0.165360;1.504970;,
  0.975120;1.504970;,
  0.975120;2.332390;,
  0.165360;2.332390;,
  0.776720;0.226670;,
  0.776720;0.039320;,
  0.570240;0.195580;,
  0.570240;0.039320;,
  0.363770;0.226670;,
  0.363770;0.039320;,
  0.363770;1.284490;,
  0.570240;1.284490;,
  0.776720;1.284490;,
  0.979070;0.315930;,
  0.774660;0.231800;,
  0.979070;1.279050;,
  0.774660;1.279050;,
  0.570240;0.201030;,
  0.570240;1.279050;,
  0.365830;0.231800;,
  0.365830;1.279050;,
  0.161420;0.315930;,
  0.161420;1.279050;,
  0.966680;0.328780;,
  0.768460;0.247210;,
  0.768460;0.247210;,
  0.966680;0.328780;,
  0.966680;1.262710;,
  0.966680;1.262710;,
  0.768460;1.262710;,
  0.768460;1.262710;,
  0.570240;0.217360;,
  0.570240;0.217360;,
  0.570240;1.262710;,
  0.570240;1.262710;,
  0.372030;0.247210;,
  0.372030;0.247210;,
  0.372030;1.262710;,
  0.372030;1.262710;,
  0.173810;0.328780;,
  0.173810;0.328780;,
  0.173810;1.262710;,
  0.173810;1.262710;,
  1.211200;0.766450;,
  0.906730;0.641150;,
  0.919420;0.609610;,
  1.236570;0.740130;,
  1.211200;2.200970;,
  1.236570;2.234420;,
  0.906730;2.200970;,
  0.919420;2.234420;,
  0.602270;0.595310;,
  0.602270;0.561860;,
  0.602270;2.200970;,
  0.602270;2.234420;,
  0.297800;0.641150;,
  0.285120;0.609610;,
  0.297800;2.200970;,
  0.285120;2.234420;,
  -0.006660;0.766450;,
  -0.032030;0.740130;,
  -0.006660;2.200970;,
  -0.032030;2.234420;,
  0.950830;0.345230;,
  0.760540;0.266920;,
  0.760540;0.266920;,
  0.950830;0.345230;,
  0.950830;1.241800;,
  0.950830;1.241800;,
  0.760540;1.241800;,
  0.760540;1.241800;,
  0.570240;0.238270;,
  0.570240;0.238270;,
  0.570240;1.241800;,
  0.570240;1.241800;,
  0.379950;0.266920;,
  0.379950;0.266920;,
  0.379950;1.241800;,
  0.379950;1.241800;,
  0.189660;0.345230;,
  0.189660;0.345230;,
  0.189660;1.241800;,
  0.189660;1.241800;,
  0.981300;1.080920;,
  0.726910;0.976220;,
  0.776990;0.851720;,
  1.081460;0.977020;,
  0.981300;2.279490;,
  1.081460;2.411530;,
  0.726910;2.279490;,
  0.776990;2.411530;,
  0.472530;0.937920;,
  0.472530;0.805880;,
  0.472530;2.279490;,
  0.472530;2.411530;,
  0.218140;0.976220;,
  0.168060;0.851720;,
  0.218140;2.279490;,
  0.168060;2.411530;,
  -0.036250;1.080920;,
  -0.136400;0.977020;,
  -0.036250;2.279490;,
  -0.136400;2.411530;,
  0.888230;0.410170;,
  0.729240;0.344740;,
  0.729240;0.344740;,
  0.888230;0.410170;,
  0.888230;1.159270;,
  0.888230;1.159270;,
  0.729240;1.159270;,
  0.729240;1.159270;,
  0.570240;0.320800;,
  0.570240;0.320800;,
  0.570240;1.159270;,
  0.570240;1.159270;,
  0.411250;0.344740;,
  0.411250;0.344740;,
  0.411250;1.159270;,
  0.411250;1.159270;,
  0.252260;0.410170;,
  0.252260;0.410170;,
  0.252260;1.159270;,
  0.252260;1.159270;,
  0.869520;0.429570;,
  0.719880;0.367990;,
  0.719880;0.367990;,
  0.869520;0.429570;,
  0.311620;0.961860;,
  0.161980;0.961860;,
  0.161980;0.961860;,
  0.311620;0.961860;,
  0.420610;0.367990;,
  0.270970;0.429570;,
  0.270970;0.429570;,
  0.420610;0.367990;,
  0.760540;0.961860;,
  0.610900;0.961860;,
  0.610900;0.961860;,
  0.760540;0.961860;,
  0.772590;0.236940;,
  0.974940;0.320210;,
  0.974940;1.273600;,
  0.772590;1.273600;,
  0.570240;0.206470;,
  0.570240;1.273600;,
  0.367900;0.236940;,
  0.367900;1.273600;,
  0.165550;0.320210;,
  0.165550;1.273600;,
  0.724560;0.356360;,
  0.878880;0.419870;,
  0.878880;1.146940;,
  0.869520;1.134610;,
  0.724560;1.146940;,
  0.719880;1.134610;,
  0.570240;0.345460;,
  0.570240;0.333130;,
  0.570240;1.146940;,
  0.570240;1.134610;,
  0.415930;0.356360;,
  0.415930;1.146940;,
  0.420610;1.134610;,
  0.261610;0.419870;,
  0.261610;1.146940;,
  0.270970;1.134610;,
  0.624110;0.147490;,
  0.586010;0.147490;,
  0.586010;0.147490;,
  0.624110;0.147490;,
  0.535600;0.147490;,
  0.535600;0.147490;,
  0.485190;0.147490;,
  0.485190;0.147490;,
  0.434780;0.147490;,
  0.434780;0.147490;,
  0.384370;0.147490;,
  0.384370;0.147490;,
  0.346270;0.147490;,
  0.346270;0.147490;,
  0.346270;0.213970;,
  0.346270;0.213970;,
  0.346270;0.451480;,
  0.346270;0.451480;,
  0.346270;0.503300;,
  0.346270;0.503300;,
  0.346270;0.709330;,
  0.346270;0.709330;,
  0.346270;0.765600;,
  0.346270;0.765600;,
  0.624110;0.765600;,
  0.624110;0.709330;,
  0.624110;0.709330;,
  0.624110;0.765600;,
  0.624110;0.503300;,
  0.624110;0.503300;,
  0.624110;0.451480;,
  0.624110;0.451480;,
  0.624110;0.213970;,
  0.624110;0.213970;,
  0.384370;0.765600;,
  0.384370;0.765600;,
  0.586010;0.765600;,
  0.586010;0.765600;,
  0.000000;0.000000;,
  0.000000;0.000000;,
  0.000000;0.000000;,
  0.000000;0.000000;,
  0.585460;0.499360;,
  0.678980;0.537850;,
  0.678980;0.537850;,
  0.585460;0.499360;,
  0.161980;0.820860;,
  0.161980;0.256820;,
  0.161980;0.256820;,
  0.161980;0.397830;,
  0.161980;0.679850;,
  0.161980;0.397830;,
  0.161980;0.256820;,
  0.161980;0.256820;,
  0.161980;0.820860;,
  0.161980;0.679850;,
  0.161980;0.538840;,
  0.014240;0.352500;,
  0.014240;0.765060;,
  0.014240;0.765060;,
  0.014240;0.352500;,
  0.760540;0.820860;,
  0.760540;0.820860;,
  0.971930;0.765060;,
  0.971930;0.352500;,
  0.971930;0.352500;,
  0.971930;0.765060;,
  0.760540;0.397830;,
  0.760540;0.256820;,
  0.760540;0.256820;,
  0.760540;0.397830;,
  0.161980;0.538840;,
  0.389620;0.555450;,
  0.501810;0.555450;,
  0.501810;0.546090;,
  0.389620;0.546090;,
  0.511260;0.555450;,
  0.511260;0.546090;,
  0.623450;0.555450;,
  0.623450;0.546090;,
  0.501810;0.546090;,
  0.389620;0.546090;,
  0.623450;0.546090;,
  0.511260;0.546090;,
  0.501810;0.555450;,
  0.389620;0.555450;,
  0.511260;0.555450;,
  0.623450;0.555450;,
  0.389620;0.445370;,
  0.501810;0.445340;,
  0.501810;0.435850;,
  0.389620;0.435850;,
  0.511260;0.445340;,
  0.511260;0.435850;,
  0.623450;0.445370;,
  0.623450;0.435850;,
  0.501810;0.435850;,
  0.389620;0.435850;,
  0.623450;0.435850;,
  0.511260;0.435850;,
  0.501810;0.445340;,
  0.389620;0.445370;,
  0.511260;0.445340;,
  0.623450;0.445370;,
  0.511260;0.325890;,
  0.511260;0.325890;,
  0.501810;0.325890;,
  0.501810;0.325890;,
  0.495430;0.356720;,
  0.506540;0.325160;,
  0.506550;0.325130;,
  0.495430;0.356720;,
  0.398410;0.499360;,
  0.445170;0.492320;,
  0.445170;0.492320;,
  0.398410;0.499360;,
  0.538690;0.492320;,
  0.538690;0.492320;,
  0.506540;0.325160;,
  0.511260;0.633400;,
  0.511260;0.633400;,
  0.501810;0.633400;,
  0.501810;0.633400;,
  0.536080;0.961860;,
  0.461260;0.961860;,
  0.386440;0.961860;,
  0.461260;0.961860;,
  0.536080;0.961860;,
  0.386440;0.961860;,
  0.506540;0.633400;,
  0.506540;0.633400;,
  0.506550;0.633400;,
  0.000000;0.000000;,
  0.000000;0.000000;,
  0.506550;0.633400;,
  0.645060;0.356720;,
  0.645060;0.356720;,
  0.506550;0.325130;,
  0.270970;0.993600;,
  0.270970;0.570580;,
  0.270970;0.711590;,
  0.270970;0.852590;,
  0.869520;0.570580;,
  0.869520;0.993600;,
  0.869520;0.711590;,
  0.869520;0.852590;,
  0.000000;0.000000;,
  1.000000;0.000000;,
  1.000000;1.000000;,
  0.000000;1.000000;,
  0.000000;0.000000;,
  1.000000;0.000000;,
  1.000000;1.000000;,
  0.000000;1.000000;,
  0.000000;0.000000;,
  1.000000;0.000000;,
  1.000000;1.000000;,
  0.000000;1.000000;,
  0.000000;0.000000;,
  1.000000;0.000000;,
  1.000000;1.000000;,
  0.000000;1.000000;,
  1.000000;1.000000;,
  0.000000;1.000000;,
  0.000000;0.000000;,
  1.000000;0.000000;,
  0.000000;0.000000;,
  0.125000;0.000000;,
  0.125000;1.000000;,
  0.000000;1.000000;,
  0.250000;0.000000;,
  0.250000;1.000000;,
  0.375000;0.000000;,
  0.375000;1.000000;,
  0.500000;0.000000;,
  0.500000;1.000000;,
  0.625000;0.000000;,
  0.625000;1.000000;,
  0.750000;0.000000;,
  0.750000;1.000000;,
  0.875000;0.000000;,
  0.875000;1.000000;,
  1.000000;0.000000;,
  1.000000;1.000000;,
  0.062500;0.000000;,
  0.187500;0.000000;,
  0.312500;0.000000;,
  0.437500;0.000000;,
  0.562500;0.000000;,
  0.687500;0.000000;,
  0.812500;0.000000;,
  0.937500;0.000000;,
  0.125000;1.000000;,
  0.000000;1.000000;,
  0.250000;1.000000;,
  0.375000;1.000000;,
  0.500000;1.000000;,
  0.625000;1.000000;,
  0.750000;1.000000;,
  0.875000;1.000000;,
  1.000000;1.000000;,
  0.125000;1.000000;,
  0.000000;1.000000;,
  0.062500;1.000000;,
  0.250000;1.000000;,
  0.187500;1.000000;,
  0.375000;1.000000;,
  0.312500;1.000000;,
  0.500000;1.000000;,
  0.437500;1.000000;,
  0.625000;1.000000;,
  0.562500;1.000000;,
  0.750000;1.000000;,
  0.687500;1.000000;,
  0.875000;1.000000;,
  0.812500;1.000000;,
  1.000000;1.000000;,
  0.937500;1.000000;,
  0.000000;0.000000;,
  0.000000;0.000000;,
  0.000000;0.000000;,
  0.000000;0.000000;,
  0.000000;0.000000;,
  0.000000;0.000000;,
  0.000000;0.000000;,
  0.000000;0.000000;,
  0.000000;0.000000;,
  0.000000;0.000000;,
  0.000000;0.000000;,
  0.000000;0.000000;,
  0.000000;0.000000;,
  0.000000;0.000000;,
  0.000000;0.000000;,
  0.000000;0.000000;,
  0.000000;0.000000;,
  0.000000;0.000000;,
  0.000000;0.000000;,
  0.000000;0.000000;,
  0.000000;0.000000;,
  0.000000;0.000000;,
  0.000000;0.000000;,
  0.000000;0.000000;,
  0.000000;0.000000;,
  0.000000;0.000000;,
  0.000000;0.000000;,
  0.000000;0.000000;,
  0.000000;0.000000;,
  0.000000;0.000000;,
  0.000000;0.000000;,
  0.000000;0.000000;,
  0.000000;0.000000;,
  0.000000;0.000000;,
  0.000000;0.000000;,
  0.000000;0.000000;,
  0.000000;0.000000;,
  0.000000;0.000000;,
  0.000000;0.000000;,
  0.000000;0.000000;,
  0.000000;0.000000;,
  0.000000;0.000000;,
  0.000000;0.000000;,
  0.000000;0.000000;,
  0.000000;0.000000;,
  0.000000;0.000000;,
  0.000000;0.000000;,
  0.000000;0.000000;,
  0.000000;0.000000;,
  0.000000;0.000000;,
  0.000000;0.000000;,
  0.000000;0.000000;,
  0.000000;0.000000;,
  0.000000;0.000000;,
  0.000000;0.000000;,
  0.000000;0.000000;,
  0.000000;0.000000;,
  0.000000;0.000000;,
  0.000000;0.000000;,
  0.000000;0.000000;,
  0.000000;0.000000;,
  0.000000;0.000000;,
  0.000000;0.000000;,
  0.000000;0.000000;,
  0.000000;0.000000;,
  0.000000;0.000000;,
  0.000000;0.000000;,
  0.000000;0.000000;,
  0.000000;0.000000;,
  0.000000;0.000000;,
  0.000000;0.000000;,
  0.000000;0.000000;,
  0.000000;0.000000;,
  0.000000;0.000000;,
  0.000000;0.000000;,
  0.000000;0.000000;,
  0.000000;0.000000;,
  0.000000;0.000000;,
  0.000000;0.000000;,
  0.000000;0.000000;,
  0.000000;0.000000;,
  0.000000;0.000000;,
  0.000000;0.000000;,
  0.000000;0.000000;,
  0.000000;0.000000;,
  0.000000;0.000000;,
  0.000000;0.000000;,
  0.000000;0.000000;,
  0.000000;0.000000;,
  0.000000;0.000000;,
  0.000000;0.000000;,
  0.000000;0.000000;,
  0.000000;0.000000;,
  0.000000;0.000000;,
  0.000000;0.000000;,
  0.000000;0.000000;,
  0.000000;0.000000;,
  0.000000;0.000000;,
  0.000000;0.000000;,
  0.000000;0.000000;,
  0.000000;0.000000;,
  0.000000;0.000000;,
  0.000000;0.000000;,
  0.000000;0.000000;,
  0.000000;0.000000;,
  0.000000;0.000000;,
  0.000000;0.000000;,
  0.000000;0.000000;,
  0.000000;0.000000;,
  0.000000;0.000000;,
  0.000000;0.000000;,
  0.000000;0.000000;,
  0.000000;0.000000;,
  0.000000;0.000000;,
  0.000000;0.000000;,
  0.000000;0.000000;,
  0.000000;0.000000;,
  0.000000;0.000000;,
  0.000000;0.000000;,
  0.000000;0.000000;,
  0.000000;0.000000;,
  0.000000;0.000000;,
  0.000000;0.000000;,
  0.000000;0.000000;,
  0.000000;0.000000;,
  0.000000;0.000000;,
  0.000000;0.000000;,
  0.000000;0.000000;,
  0.000000;0.000000;,
  0.000000;0.000000;,
  0.000000;0.000000;,
  0.000000;0.000000;,
  0.000000;0.000000;,
  0.000000;0.000000;,
  0.000000;0.000000;,
  0.000000;0.000000;,
  0.000000;0.000000;,
  0.000000;0.000000;,
  0.000000;0.000000;,
  0.000000;0.000000;,
  0.000000;0.000000;,
  0.000000;0.000000;,
  0.000000;0.000000;,
  0.000000;0.000000;,
  0.000000;0.000000;,
  0.000000;0.000000;,
  0.000000;0.000000;,
  0.000000;0.000000;,
  0.000000;0.000000;,
  0.000000;0.000000;,
  0.000000;0.000000;,
  0.000000;0.000000;,
  0.000000;0.000000;,
  0.000000;0.000000;,
  0.000000;1.000000;,
  0.125000;1.000000;,
  0.125000;0.000000;,
  0.000000;0.000000;,
  0.250000;1.000000;,
  0.250000;0.000000;,
  0.375000;1.000000;,
  0.375000;0.000000;,
  0.500000;1.000000;,
  0.500000;0.000000;,
  0.625000;1.000000;,
  0.625000;0.000000;,
  0.750000;1.000000;,
  0.750000;0.000000;,
  0.875000;1.000000;,
  0.875000;0.000000;,
  1.000000;1.000000;,
  1.000000;0.000000;,
  0.062500;0.000000;,
  0.187500;0.000000;,
  0.312500;0.000000;,
  0.437500;0.000000;,
  0.562500;0.000000;,
  0.687500;0.000000;,
  0.812500;0.000000;,
  0.937500;0.000000;,
  0.000000;1.000000;,
  0.125000;1.000000;,
  0.250000;1.000000;,
  0.375000;1.000000;,
  0.500000;1.000000;,
  0.625000;1.000000;,
  0.750000;1.000000;,
  0.875000;1.000000;,
  1.000000;1.000000;,
  0.000000;1.000000;,
  0.125000;1.000000;,
  0.062500;1.000000;,
  0.250000;1.000000;,
  0.187500;1.000000;,
  0.375000;1.000000;,
  0.312500;1.000000;,
  0.500000;1.000000;,
  0.437500;1.000000;,
  0.625000;1.000000;,
  0.562500;1.000000;,
  0.750000;1.000000;,
  0.687500;1.000000;,
  0.875000;1.000000;,
  0.812500;1.000000;,
  1.000000;1.000000;,
  0.937500;1.000000;,
  0.000000;0.000000;,
  0.000000;0.000000;,
  0.000000;0.000000;,
  0.000000;0.000000;,
  0.000000;0.000000;,
  0.000000;0.000000;,
  0.000000;0.000000;,
  0.000000;0.000000;,
  0.000000;0.000000;,
  0.000000;0.000000;,
  0.000000;0.000000;,
  0.000000;0.000000;,
  0.000000;0.000000;,
  0.000000;0.000000;,
  0.000000;0.000000;,
  0.000000;0.000000;,
  0.000000;0.000000;,
  0.000000;0.000000;,
  0.000000;0.000000;,
  0.000000;0.000000;,
  0.000000;0.000000;,
  0.000000;0.000000;,
  0.000000;0.000000;,
  0.000000;0.000000;,
  0.000000;0.000000;,
  0.000000;0.000000;,
  0.000000;0.000000;,
  0.000000;0.000000;,
  0.000000;0.000000;,
  0.000000;0.000000;,
  0.000000;0.000000;,
  0.000000;0.000000;,
  0.000000;0.000000;,
  0.000000;0.000000;,
  0.000000;0.000000;,
  0.000000;0.000000;,
  0.000000;0.000000;,
  0.000000;0.000000;,
  0.000000;0.000000;,
  0.000000;0.000000;,
  0.000000;0.000000;,
  0.000000;0.000000;,
  0.000000;0.000000;,
  0.000000;0.000000;,
  0.000000;0.000000;,
  0.000000;0.000000;,
  0.000000;0.000000;,
  0.000000;0.000000;,
  0.000000;0.000000;,
  0.000000;0.000000;,
  0.000000;0.000000;,
  0.000000;0.000000;,
  0.000000;0.000000;,
  0.000000;0.000000;,
  0.000000;0.000000;,
  0.000000;0.000000;,
  0.000000;0.000000;,
  0.000000;0.000000;,
  0.000000;0.000000;,
  0.000000;0.000000;,
  0.000000;0.000000;,
  0.000000;0.000000;,
  0.000000;0.000000;,
  0.000000;0.000000;,
  0.000000;0.000000;,
  0.000000;0.000000;,
  0.000000;0.000000;,
  0.000000;0.000000;,
  0.000000;0.000000;,
  0.000000;0.000000;,
  0.000000;0.000000;,
  0.000000;0.000000;,
  0.000000;0.000000;,
  0.000000;0.000000;,
  0.000000;0.000000;,
  0.000000;0.000000;,
  0.000000;0.000000;,
  0.000000;0.000000;,
  0.000000;0.000000;,
  0.000000;0.000000;,
  0.000000;0.000000;,
  0.000000;0.000000;,
  0.000000;0.000000;,
  0.000000;0.000000;,
  0.000000;0.000000;,
  0.000000;0.000000;,
  0.000000;0.000000;,
  0.000000;0.000000;,
  0.000000;0.000000;,
  0.000000;0.000000;,
  0.000000;0.000000;,
  0.000000;0.000000;,
  0.000000;0.000000;,
  0.000000;0.000000;,
  0.000000;0.000000;,
  0.000000;0.000000;,
  0.000000;0.000000;,
  0.000000;0.000000;,
  0.000000;0.000000;,
  0.000000;0.000000;,
  0.000000;0.000000;,
  0.000000;0.000000;,
  0.000000;0.000000;,
  0.000000;0.000000;,
  0.000000;0.000000;,
  0.000000;0.000000;,
  0.000000;0.000000;,
  0.000000;0.000000;,
  0.000000;0.000000;,
  0.000000;0.000000;,
  0.000000;0.000000;,
  0.000000;0.000000;,
  0.000000;0.000000;,
  0.000000;0.000000;,
  0.000000;0.000000;,
  0.000000;0.000000;,
  0.000000;0.000000;,
  0.000000;0.000000;,
  0.000000;0.000000;,
  0.000000;0.000000;,
  0.000000;0.000000;,
  0.000000;0.000000;,
  0.000000;0.000000;,
  0.000000;0.000000;,
  0.000000;0.000000;,
  0.000000;0.000000;,
  0.000000;0.000000;,
  0.000000;0.000000;,
  0.000000;0.000000;,
  0.000000;0.000000;,
  0.000000;0.000000;,
  0.000000;0.000000;,
  0.000000;0.000000;,
  0.000000;0.000000;,
  0.000000;0.000000;,
  0.000000;0.000000;,
  0.000000;0.000000;,
  0.000000;0.000000;,
  0.000000;0.000000;,
  0.000000;0.000000;,
  0.000000;0.000000;,
  0.000000;0.000000;,
  0.000000;0.000000;,
  0.000000;0.000000;,
  0.000000;0.000000;,
  0.000000;0.000000;,
  0.000000;0.000000;,
  0.000000;0.000000;,
  0.000000;0.000000;,
  0.000000;0.000000;,
  0.000000;0.000000;,
  0.000000;0.000000;,
  0.000000;0.000000;,
  0.000000;0.000000;;
 }
}
